<?xml version="1.0" standalone="no"?>
<!DOCTYPE svg PUBLIC "-//W3C//DTD SVG 1.1//EN" "http://www.w3.org/Graphics/SVG/1.1/DTD/svg11.dtd" >
<svg xmlns="http://www.w3.org/2000/svg">
<metadata></metadata>
<defs>
<font id="segoe_uiregular" horiz-adv-x="1104" >
<font-face units-per-em="2048" ascent="1638" descent="-410" />
<missing-glyph horiz-adv-x="561" />
<glyph horiz-adv-x="0" />
<glyph horiz-adv-x="682" />
<glyph unicode="&#xd;" horiz-adv-x="199" />
<glyph unicode=" "  horiz-adv-x="561" />
<glyph unicode="&#x09;" horiz-adv-x="561" />
<glyph unicode="&#xa0;" horiz-adv-x="561" />
<glyph unicode="!" horiz-adv-x="582" d="M180 92q0 46 32.5 78.5t78.5 32.5q45 0 78 -32.5t33 -78.5t-33 -78t-78 -32q-46 0 -78.5 32t-32.5 78zM203 1434h172l-19 -1030h-135z" />
<glyph unicode="&#x22;" horiz-adv-x="803" d="M148 1434h175l-30 -447h-115zM480 1434h175l-30 -447h-115z" />
<glyph unicode="#" horiz-adv-x="1210" d="M33 520l20 106h265l61 300h-277l21 106h277l84 402h126l-84 -402h252l86 402h123l-84 -402h263l-23 -106h-261l-63 -300h281l-27 -106h-275l-88 -397h-126l86 397h-250l-84 -397h-125l84 397h-262zM440 626h254l64 300h-252z" />
<glyph unicode="$" d="M162 1059q0 145 99 250.5t251 126.5v180h104v-176q196 -6 271 -56v-170q-102 80 -271 86v-528q208 -99 284.5 -191.5t76.5 -210.5q0 -142 -95.5 -238.5t-265.5 -123.5v-217h-104v209q-213 0 -346 86v174q58 -51 158.5 -85.5t187.5 -34.5v512q-220 106 -285 195.5 t-65 211.5zM330 1080q0 -86 40 -141t142 -111v466q-84 -17 -133 -74.5t-49 -139.5zM616 148q193 42 193 208q0 138 -193 244v-452z" />
<glyph unicode="%" horiz-adv-x="1676" d="M80 1073q0 178 93 280.5t251 102.5q153 0 237.5 -95t84.5 -267t-94.5 -275.5t-247.5 -103.5q-148 0 -236 97.5t-88 260.5zM213 1082q0 -121 54 -188.5t147 -67.5q94 0 147 70t53 194q0 121 -52.5 188.5t-143.5 67.5q-95 0 -150 -70.5t-55 -193.5zM301 -10l919 1444h144 l-920 -1444h-143zM934 336q0 178 94 281.5t250 103.5q152 0 237 -96t85 -269q0 -171 -94.5 -274.5t-247.5 -103.5q-148 0 -236 98t-88 260zM1067 344q0 -119 54 -186.5t147 -67.5q94 0 147 70.5t53 193.5q0 122 -52.5 188t-143.5 66q-96 0 -150.5 -70t-54.5 -194z" />
<glyph unicode="&#x26;" horiz-adv-x="1639" d="M119 390q0 153 87 261.5t246 177.5q-30 22 -60 51.5t-53.5 67t-38 83t-14.5 99.5q0 79 28.5 140t78.5 103t118 63.5t147 21.5q78 0 142.5 -21.5t111 -61.5t72.5 -96t26 -125q0 -120 -68.5 -199.5t-205.5 -135.5q69 -27 125 -66t103.5 -87t88.5 -103t81 -114 q81 113 122 249t41 285q0 38 -4.5 71.5t-12.5 66.5h159q8 -33 9.5 -62.5t3.5 -70.5q0 -91 -19 -183t-51 -178.5t-74.5 -164.5t-89.5 -143q35 -48 64 -83.5t58.5 -59.5t61 -35.5t71.5 -11.5q30 0 61 8t64 20v-152q-36 -14 -75.5 -21t-77.5 -7q-57 0 -100.5 15.5t-80.5 44 t-71.5 69.5t-72.5 93q-40 -43 -92.5 -83t-116.5 -71t-140 -49.5t-165 -18.5q-108 0 -198 27t-154 79.5t-99.5 129.5t-35.5 177zM286 395q0 -68 25 -120t68.5 -86.5t101.5 -52t125 -17.5q76 0 140 16.5t118 44t98 64t80 76.5q-61 95 -112.5 162.5t-104 116.5t-112 84 t-137.5 65q-63 -25 -116 -55.5t-91.5 -72t-60.5 -96.5t-22 -129zM442 1130q0 -41 12.5 -77t35 -67t52.5 -55t64 -41q126 44 188 102.5t62 147.5q0 50 -18.5 85t-47 58t-63.5 33.5t-69 10.5q-98 0 -156.5 -53t-59.5 -144z" />
<glyph unicode="'" horiz-adv-x="471" d="M148 1434h175l-30 -447h-115z" />
<glyph unicode="(" horiz-adv-x="618" d="M140 547q0 521 310 887h148q-314 -380 -314 -885q0 -501 312 -875h-146q-310 354 -310 873z" />
<glyph unicode=")" horiz-adv-x="618" d="M22 1434h148q312 -366 312 -887q0 -519 -312 -873h-146q312 374 312 875q0 505 -314 885z" />
<glyph unicode="*" horiz-adv-x="854" d="M76 1104l45 125l262 -99l-23 304h138l-23 -304l263 99l42 -125l-274 -56l190 -243l-110 -76l-156 265l-158 -265l-110 76l190 243z" />
<glyph unicode="+" horiz-adv-x="1401" d="M232 530v134h403v403h133v-403h404v-134h-404v-403h-133v403h-403z" />
<glyph unicode="," horiz-adv-x="444" d="M39 -264l117 492h160l-160 -492h-117z" />
<glyph unicode="-" horiz-adv-x="819" d="M144 506v129h546v-129h-546z" />
<glyph unicode="." horiz-adv-x="444" d="M112 90q0 46 32.5 79.5t78.5 33.5q47 0 80 -33.5t33 -79.5t-33 -79t-80 -33q-46 0 -78.5 33t-32.5 79z" />
<glyph unicode="../../../../default.htm" horiz-adv-x="798" d="M-28 -238l686 1672h155l-688 -1672h-153z" />
<glyph unicode="0" d="M86 688q0 380 124.5 575t359.5 195q450 0 450 -735q0 -364 -127 -555.5t-355 -191.5q-213 0 -332.5 183t-119.5 529zM254 696q0 -582 301 -582q297 0 297 592q0 613 -291 613q-307 0 -307 -623z" />
<glyph unicode="1" d="M168 1159v156l496 151v-1322h323v-144h-811v144h324v1114z" />
<glyph unicode="2" d="M96 0v146l418 419q160 160 228.5 266.5t68.5 227.5q0 124 -71 192t-202 68q-192 0 -368 -164v172q168 131 391 131q192 0 302 -104t110 -279q0 -138 -76 -269.5t-273 -326.5l-331 -327v-4h667v-148h-864z" />
<glyph unicode="3" d="M131 53v177q147 -116 332 -116q150 0 239.5 75t89.5 202q0 281 -399 281h-119v139h113q355 0 355 264q0 244 -271 244q-151 0 -285 -103v160q138 82 326 82q181 0 289.5 -96t108.5 -246q0 -283 -288 -364v-4q155 -15 246.5 -108.5t91.5 -233.5q0 -193 -138.5 -311.5 t-365.5 -118.5q-204 0 -325 77z" />
<glyph unicode="4" d="M14 381v107l638 946h198v-920h184v-133h-184v-381h-162v381h-674zM192 514h496v620q0 66 4 148h-4q-14 -36 -55 -110z" />
<glyph unicode="5" d="M164 35v174q147 -95 299 -95t245 86t93 228q0 141 -95 220t-272 79q-60 0 -225 -12v719h694v-148h-539v-420q66 4 122 4q230 0 356 -115.5t126 -316.5q0 -208 -135.5 -335t-371.5 -127q-199 0 -297 59z" />
<glyph unicode="6" d="M110 631q0 377 161 602t425 225q150 0 238 -41v-155q-111 57 -234 57q-191 0 -305.5 -170t-114.5 -455h4q100 203 328 203q188 0 299 -120.5t111 -322.5q0 -211 -127 -344.5t-323 -133.5q-216 0 -339 172t-123 483zM291 469q0 -147 78.5 -251t208.5 -104q124 0 200 90.5 t76 229.5q0 152 -73 238t-205 86q-127 0 -206 -86t-79 -203z" />
<glyph unicode="7" d="M86 1286v148h924v-52l-568 -1382h-170l537 1286h-723z" />
<glyph unicode="8" d="M100 350q0 276 310 402v4q-258 120 -258 348q0 155 118 254.5t304 99.5q168 0 276 -93t108 -239q0 -238 -2051D6DDA00" />
<glyph unicode="9" d="M94 979q0 210 129.5 344.5t331.5 134.5q212 0 330.5 -167.5t118.5 -487.5q0 -397 -154 -612t-428 -215q-140F8518AA9C" />
<glyph unicode=":" horiz-adv-x="444" d="M112 90q0 46 32.5 79.5t78.5 33.5q47 0 80 -33.5t33 -79.5t-33 -79t-80 -33q-46 0 -78.5 33t-32.5 79zM1120145893A1B" />
<glyph unicode=";" horiz-adv-x="444" d="M39 -264l117 492h160l-160 -492h-117zM114 936q0 46 32.5 78t79.5 32q46 0 79 -32t33 -78t-33 -79t-79 -33q-47 0 -79.5 33t-32.5 79z" />
<glyph unicode="&#x3c;" horiz-adv-x="1401" d="M272 559v59l860 482v-150l-642 -356v-4l642 -314v-149z" />
<glyph unicode="=" horiz-adv-x="1401" d="M232 318v132h940v-132h-940zM232 744v132h940v-132h-940z" />
<glyph unicode="&#x3e;" horiz-adv-x="1401" d="M272 127v149l644 312v6l-644 356v150l860 -482v-59z" />
<glyph unicode="?" horiz-adv-x="918" d="M131 1186v176q153 96 317 96q76 0 143 -20t117.5 -59.5t79.5 -98.5t29 -137q0 -74 -26 -132t-65.5 -106.5t-85.5 -90.5t-85.5 -83.5t-65.5 -86.5t-26 -99q0 -46 11 -83.5t22 -63.5h-161q-9 26 -16 67.5t-7 82.5q0 64 25.5 115.5t63.5 96.5t83 86.5t83 84t63.5 89 t25.5 102.5q0 48 -18.5 85t-50.5 62t-74 37.5t-89 12.5q-169 0 -293 -133zM314 92q0 47 33 78q33 33 78 33t78 -33q33 -31 33 -78q0 -46 -33 -78q-34 -32 -78 -32t-78 32q-33 32 -33 78z" />
<glyph unicode="@" horiz-adv-x="1956" d="M172 606q0 366 233.5 607t596.5 241q340 0 563 -202t223 -527q0 -238 -117.5 -390.5t-286.5 -152.5q-219 0 -220 238h-5q-73 -238 -287 -238q-137 0 -220.5 101t-83.5 272q0 226 115.5 375.5t303.5 149.5q72 0 128.5 -37t72.5 -93h4q2 28 10 115h125q-47 -551 -47 -561 q0 -207 119 -207q108 0 179.5 117t71.5 303q0 275 -174 449t-482 174q-297 0 -491 -208t-194 -520q0 -307 184.5 -495.5t497.5 -188.5q247 0 422 82v-124q-173 -74 -432 -74q-364 0 -586.5 219.5t-222.5 574.5zM708 553q0 -118 51.5 -186t137.5 -68q124 0 196.5 123.5 t72.5 327.5q0 214 -181 214q-124 0 -200.5 -118t-76.5 -293z" />
<glyph unicode="A" horiz-adv-x="1321" d="M22 0l550 1434h174l552 -1434h-186l-152 402h-608l-143 -402h-187zM408 553h497l-225 611q-11 30 -22 96h-4q-10 -61 -23 -96z" />
<glyph unicode="B" horiz-adv-x="1174" d="M188 0v1434h408q186 0 295 -91t109 -237q0 -122 -66 -212t-182 -128v-4q145 -17 232 -109.5t87 -240.5q0 -184 -132 -298t-333 -114h-418zM356 152h228q148 0 229.5 70t81.5 192q0 254 -346 254h-193v-516zM356 819h172q138 0 217 66.5t79 187.5q0 209 -275 209h-193 v-463z" />
<glyph unicode="C" horiz-adv-x="1268" d="M94 690q0 344 207 556t525 212q204 0 338 -59v-179q-154 86 -340 86q-247 0 -400.5 -165t-153.5 -441q0 -262 143.5 -417.5t376.5 -155.5q216 0 374 96v-163q-159 -84 -396 -84q-306 0 -490 197t-184 517z" />
<glyph unicode="D" horiz-adv-x="1436" d="M188 0v1434h396q758 0 758 -699q0 -332 -210.5 -533.5t-563.5 -201.5h-380zM356 152h214q282 0 439 151t157 428q0 551 -586 551h-224v-1130z" />
<glyph unicode="E" horiz-adv-x="1036" d="M188 0v1434h728v-152h-560v-477h518v-151h-518v-502h592v-152h-760z" />
<glyph unicode="F" horiz-adv-x="1000" d="M188 0v1434h728v-152h-560v-496h518v-151h-518v-635h-168z" />
<glyph unicode="G" horiz-adv-x="1405" d="M94 698q0 333 210.5 546.5t533.5 213.5q234 0 393 -76v-186q-174 110 -412 110q-241 0 -395 -166t-154 -430q0 -272 143 -427.5t388 -155.5q168 0 291 67v402h-314v152h482v-650q-216 -122 -480 -122q-307 0 -496.5 198t-189.5 524z" />
<glyph unicode="H" horiz-adv-x="1454" d="M188 0v1434h168v-629h742v629h168v-1434h-168v654h-742v-654h-168z" />
<glyph unicode="I" horiz-adv-x="545" d="M48 0v144h140v1146h-140v144h448v-144h-140v-1146h140v-144h-448z" />
<glyph unicode="J" horiz-adv-x="731" d="M20 0v166q54 -39 140 -39q227 0 227 385v922h168v-920q0 -255 -108 -396.5t-289 -141.5q-84 0 -138 24z" />
<glyph unicode="K" horiz-adv-x="1188" d="M188 0v1434h168v-674h4q14 22 38 49l536 625h209l-615 -688l658 -746h-234l-554 656q-31 37 -38 50h-4v-706h-168z" />
<glyph unicode="L" horiz-adv-x="964" d="M188 0v1434h168v-1282h576v-152h-744z" />
<glyph unicode="M" horiz-adv-x="1839" d="M188 0v1434h222l440 -1000q51 -115 66 -172h6q43 118 69 176l449 996h210v-1434h-167v962q0 114 14 279h-4q-24 -97 -43 -139l-490 -1102h-82l-489 1094q-21 48 -43 147h-4q8 -86 8 -281v-960h-162z" />
<glyph unicode="N" horiz-adv-x="1532" d="M188 0v1434h218l718 -1125q45 -70 58 -96h4q-10 62 -10 211v1010h168v-1434h-206l-738 1143q-28 43 -46 90h-6q8 -46 8 -197v-1036h-168z" />
<glyph unicode="O" horiz-adv-x="1544" d="M94 700q0 346 187 552t509 206q297 0 478.5 -200t181.5 -523q0 -351 -186 -555t-498 -204q-305 0 -488.5 201t-183.5 523zM270 715q0 -265 137.5 -426.5t358.5 -161.5q236 0 372 154t136 431q0 284 -132 439t-364 155q-226 0 -367 -163t-141 -428z" />
<glyph unicode="P" horiz-adv-x="1147" d="M188 0v1434h394q230 0 356.5 -112t126.5 -316t-140.5 -334t-379.5 -130h-189v-542h-168zM356 694h176q174 0 265.5 79.5t91.5 224.5q0 284 -336 284h-197v-588z" />
<glyph unicode="Q" horiz-adv-x="1544" d="M94 700q0 347 186 552q188 206 514 206q292 0 474 -200t182 -523q0 -136 -30.5 -256.5t-92.5 -217.5t-156 -164.5t-222 -96.5q52 -56 97.5 -99t91 -72.5t94.5 -44.5t108 -15q16 0 35 1.5t38.5 5t37.5 8t33 10.5v-162q-16 -5 -36 -8.5t-40.5 -6t-40.5 -4t-37 -1.5 q-96 0 -172.5 28.5t-143 78t-128.5 115.5t-130 142q-64 0 -130 12.5t-128 38t-118.5 63t-102.5 87.5q-183 200 -183 523zM270 715q0 -264 137 -427q138 -161 359 -161q236 0 372 154t136 431q0 285 -132 439q-132 155 -364 155q-226 0 -367 -163t-141 -428z" />
<glyph unicode="R" horiz-adv-x="1225" d="M188 0v1434h428q94 0 173.5 -23.5t138 -71.5t91.5 -119.5t33 -167.5q0 -75 -22.5 -137.5t-64 -111.5t-100 -83.5t-131.5 -53.5v-4q36 -16 62.5 -36.5t50.5 -48.5t47.5 -63.5t52.5 -82.5l269 -431h-200l-240 402q-33 56 -64 95.5t-63.5 64.5t-70 36.5t-84.5 11.5h-138 v-610h-168zM356 762h228q63 0 116.5 19t92.5 54.5t61 87t22 115.5q0 115 -74.5 179.5t-215.5 64.5h-230v-520z" />
<glyph unicode="S" horiz-adv-x="1088" d="M121 58v198q34 -30 81.5 -54t100 -40.5t105.5 -25.5t98 -9q155 0 231.5 57.5t76.5 165.5q0 58 -25.5 101t-05937C5AA9" />
<glyph unicode="T" horiz-adv-x="1073" d="M41 1282v152h995v-152h-414v-1282h-168v1282h-413z" />
<glyph unicode="U" horiz-adv-x="1407" d="M170 557v877h168v-866q0 -441 372 -441q359 0 359 426v881h168v-854q0 -604 -545 -604q-522 0 -522 581z" />
<glyph unicode="V" horiz-adv-x="1272" d="M18 1434h187l397 -1137q19 -55 29 -127h4q8 60 33 129l405 1135h181l-531 -1434h-185z" />
<glyph unicode="W" horiz-adv-x="1913" d="M26 1434h185l305 -1100q19 -69 24 -144h5q5 53 31 144l317 1100h161l304 -1108q16 -57 24 -134h4q4 52 27 138l293 1104h182l-405 -1434h-197l-295 1048q-19 67 -23 146h-4q-6 -74 -26 -144l-297 -1050h-195z" />
<glyph unicode="X" horiz-adv-x="1208" d="M26 0l480 721l-442 713h206l293 -504q29 -50 51 -100h4q32 66 56 104l305 500h193l-451 -711l457 -723h-205l-330 549q-15 25 -33 71h-4q-10 -23 -34 -71l-340 -549h-206z" />
<glyph unicode="Y" horiz-adv-x="1132" d="M18 1434h191l321 -648q6 -12 35 -88h3q10 34 38 88l336 648h178l-473 -904v-530h-168v526z" />
<glyph unicode="Z" horiz-adv-x="1168" d="M33 0v47l833 1235h-766v152h1024v-40l-840 -1242h820v-152h-1071z" />
<glyph unicode="[" horiz-adv-x="618" d="M200 -326v1760h368v-119h-222v-1522h222v-119h-368z" />
<glyph unicode="\" horiz-adv-x="776" d="M-26 1434h155l669 -1674h-151z" />
<glyph unicode="]" horiz-adv-x="618" d="M53 -207h221v1522h-221v119h367v-1760h-367v119z" />
<glyph unicode="^" horiz-adv-x="1401" d="M230 624l422 834h65l457 -834h-150l-332 619h-6l-309 -619h-147z" />
<glyph unicode="_" horiz-adv-x="850" d="M0 -178h850v-119h-850v119z" />
<glyph unicode="`" horiz-adv-x="549" d="M82 1546h168l221 -328h-127z" />
<glyph unicode="a" horiz-adv-x="1042" d="M90 272q0 287 338 334l307 43q0 261 -211 261q-185 0 -334 -126v168q151 96 348 96q361 0 361 -382v-666h-082D0DCACC" />
<glyph unicode="b" horiz-adv-x="1204" d="M166 0v1516h164v-672h4q121 204 354 204q197 0 308.5 -137.5t111.5 -368.5q0 -257 -125 -411.5t-342 -154.5q-203 0 -307 172h-4v-148h-164zM330 418q0 -127 82.5 -215.5t209.5 -88.5q149 0 233.5 114t84.5 317q0 171 -79 268t-214 97q-143 0 -230 -99.5t-87 -249.5v-143 z" />
<glyph unicode="c" horiz-adv-x="946" d="M96 488q0 253 145 406.5t387 153.5q135 0 238 -50v-168q-114 80 -244 80q-157 0 -257.5 -112.5t-100.5 -2902C1693AE2" />
<glyph unicode="d" horiz-adv-x="1206" d="M96 488q0 254 128 407t341 153q211 0 307 -166h4v634h164v-1516h-164v174h-4q-114 -198 -352 -198q-193 0 -308.5 137.5t-115.5 374.5zM264 496q0 -177 82.5 -279.5t221.5 -102.5q137 0 222.5 99t85.5 250v151q0 124 -82 210t-208 86q-150 0 -236 -110t-86 -304z" />
<glyph unicode="e" horiz-adv-x="1071" d="M96 508q0 239 135.5 389.5t336.5 150.5t311 -130t110 -361v-86h-723q4 -171 92 -264t242 -93q173 0 318 114v-154q-135 -98 -357 -98q-217 0 -341 139.5t-124 392.5zM268 610h553q-1 142 -68.5 221t-187.5 79q-116 0 -197 -83t-100 -217z" />
<glyph unicode="f" horiz-adv-x="641" d="M53 884v140h175v166q0 161 93 254.5t232 93.5q75 0 119 -18v-148q-48 27 -109 27q-172 0 -172 -217v-158h240v-140h-240v-884h-163v884h-175z" />
<glyph unicode="g" horiz-adv-x="1206" d="M96 479q0 261 125.5 415t343.5 154q207 0 307 -166h4v142h164v-942q0 -564 -540 -564q-190 0 -332 72v164q0E7189EAE1" />
<glyph unicode="h" horiz-adv-x="1159" d="M166 0v1516h164v-662h4q118 194 336 194q346 0 346 -417v-631h-164v590q0 320 -238 320q-120 0 -202 -92.5t-82 -237.5v-580h-164z" />
<glyph unicode="i" horiz-adv-x="496" d="M144 1390q0 46 31 76.5t75 30.5q45 0 76.5 -30.5t31.5 -76.5q0 -44 -31.5 -75t-76.5 -31q-44 0 -75 30t-31 76zM166 0v1024h164v-1024h-164z" />
<glyph unicode="j" horiz-adv-x="496" d="M-198 -297q74 -45 140 -45q224 0 224 358v1008h164v-981q0 -252 -101.5 -388.5t-290.5 -136.5q-70 0 -136 32v153zM144 1390q0 46 31 76.5t75 30.5q45 0 76.5 -30.5t31.5 -76.5q0 -44 -31.5 -75t-76.5 -31q-44 0 -75 30t-31 76z" />
<glyph unicode="k" horiz-adv-x="1018" d="M166 0v1516h164v-961h4l430 469h215l-475 -494l512 -530h-230l-452 492h-4v-492h-164z" />
<glyph unicode="l" horiz-adv-x="496" d="M166 0v1516h164v-1516h-164z" />
<glyph unicode="m" horiz-adv-x="1764" d="M166 0v1024h164v-162h4q109 186 318 186q105 0 183 -58.5t107 -153.5q114 212 340 212q338 0 338 -417v-631h-164v588q0 170 -52.5 246t-176.5 76q-105 0 -178.5 -96t-73.5 -230v-584h-164v608q0 302 -233 302q-108 0 -178 -90.5t-70 -235.5v-584h-164z" />
<glyph unicode="n" horiz-adv-x="1159" d="M166 0v1024h164v-170h4q116 194 336 194q168 0 257 -108.5t89 -313.5v-626h-164v584q0 326 -238 326q-123 0 -203.5 -92.5t-80.5 -233.5v-584h-164z" />
<glyph unicode="o" horiz-adv-x="1200" d="M96 500q0 258 141 403t381 145q229 0 357.5 -141t128.5 -391q0 -245 -138.5 -392.5t-371.5 -147.5q-227 0 0A7AC5FA88" />
<glyph unicode="p" horiz-adv-x="1204" d="M166 -471v1495h164v-180h4q121 204 354 204q198 0 309 -137.5t111 -368.5q0 -257 -125 -411.5t-342 -154.5q-199 0 -307 172h-4v-619h-164zM330 418q0 -127 82.5 -215.5t209.5 -88.5q149 0 233.5 114t84.5 317q0 171 -79 268t-214 97q-143 0 -230 -99.5t-87 -249.5v-143z " />
<glyph unicode="q" horiz-adv-x="1206" d="M96 488q0 255 128 407.5t344 152.5q210 0 304 -166h4v142h164v-1495h-164v647h-4q-107 -200 -350 -200q-190F0D91DA8E" />
<glyph unicode="r" horiz-adv-x="712" d="M166 0v1024h164v-211h4q35 108 107 168.5t161 60.5q64 0 98 -14v-170q-43 33 -124 33q-105 0 -175.5 -99t-70.5 -270v-522h-164z" />
<glyph unicode="s" horiz-adv-x="869" d="M104 37v176q134 -99 295 -99q216 0 216 144q0 41 -18.5 69.5t-50 50.5t-74 39.5t-91.5 36.5q-68 27 -119.5 54.5t-86 62t-52 78.5t-17.5 103q0 72 33 127.5t88 93t125.5 56.5t145.5 19q133 0 238 -46v-166q-113 74 -260 74q-46 0 -83 -10.5t-63.5 -29.5t-41 -45.5 t-14.5 -58.5q0 -40 14.5 -67t42.5 -48t68 -38t91 -37q68 -26 122 -53.5t92 -62t58.5 -79.5t20.5 -107q0 -76 -33.5 -132t-89.5 -93t-129 -55t-153 -18q-158 0 -274 61z" />
<glyph unicode="t" horiz-adv-x="694" d="M43 884v140h176v250l164 53v-303h258v-140h-258v-577q0 -103 35 -147t116 -44q62 0 107 34v-140q-58 -32 -153 -32q-269 0 -269 300v606h-176z" />
<glyph unicode="u" horiz-adv-x="1159" d="M144 412v612h163v-586q0 -324 248 -324q120 0 197.5 88.5t77.5 231.5v590h164v-1024h-164v162h-4q-102 -186 -316 -186q-366 0 -366 436z" />
<glyph unicode="v" horiz-adv-x="981" d="M14 1024h180l260 -744q29 -82 36 -143h4q10 77 32 139l272 748h173l-408 -1024h-161z" />
<glyph unicode="w" horiz-adv-x="1480" d="M24 1024h172l212 -770q10 -35 14 -92h8q3 44 18 94l236 768h150l212 -772q10 -37 15 -92h8q2 39 17 92l208 772h162l-307 -1024h-170l-211 733q-12 42 -16 95h-4q-3 -36 -21 -93l-229 -735h-164z" />
<glyph unicode="x" horiz-adv-x="940" d="M26 0l349 502l-334 522h191l198 -350q22 -39 43 -80h4l256 430h181l-344 -518l338 -506h-191l-201 332q-19 31 -45 78h-4q-5 -9 -47 -78l-205 -332h-189z" />
<glyph unicode="y" horiz-adv-x="991" d="M14 1024h182l277 -788q5 -15 21 -78h6q5 24 20 76l291 790h170l-471 -1188q-126 -318 -354 -318q-64 0 -107 13v147q53 -18 97 -18q124 0 186 148l82 194z" />
<glyph unicode="z" horiz-adv-x="926" d="M33 0v51l606 833h-549v140h790v-47l-606 -837h600v-140h-841z" />
<glyph unicode="{" horiz-adv-x="618" d="M92 496v116q156 10 156 216v292q0 310 307 314v-128q-159 -4 -159 -198v-293q0 -210 -150 -258v-4q150 -45 150 -256v-289q0 -111 35.5 -158.5t123.5 -49.5v-126q-307 4 -307 310v300q0 202 -156 212z" />
<glyph unicode="|" horiz-adv-x="490" d="M172 -482v2048h148v-2048h-148z" />
<glyph unicode="}" horiz-adv-x="618" d="M66 -200q87 2 123.5 50t36.5 158v289q0 211 149 256v4q-149 48 -149 258v293q0 194 -160 198v128q306 -4 306 -314v-292q0 -206 156 -216v-116q-156 -10 -156 -212v-300q0 -306 -306 -310v126z" />
<glyph unicode="~" horiz-adv-x="1401" d="M209 440q5 143 79.5 226.5t201.5 83.5q106 0 235 -88q132 -90 197 -90q61 0 98 49t39 129h135q-7 -148 -80.5 -229t-199.5 -81q-109 0 -265 109q-97 67 -159 67q-140 0 -146 -176h-135z" />
<glyph unicode="&#xa1;" horiz-adv-x="582" d="M180 936q0 46 32.5 78t78.5 32q45 0 78 -32t33 -78t-33 -78t-78 -32q-46 0 -78.5 32t-32.5 78zM207 -406l19 1030h134l19 -1030h-172z" />
<glyph unicode="&#xa2;" d="M184 649q0 219 114.5 366.5t307.5 184.5v213h125v-203q123 -2 221 -51v-172q-101 71 -221 78v-785q122 12 09681EDA66" />
<glyph unicode="&#xa3;" d="M106 0v135q218 69 218 313v187h-197v141h197v254q0 188 109 308t282 120q117 0 213 -41v-155q-100 57 -211 57q-229 0 -229 -307v-236h296v-141h-296v-156q0 -242 -193 -339h711v-140h-900z" />
<glyph unicode="&#xa4;" horiz-adv-x="1138" d="M100 354l138 134q-76 113 -76 237q0 129 76 237l-138 136l92 96l138 -137q110 77 240 77q129 0 237 -77l139 137l92 -96l-137 -136q78 -112 78 -237q0 -121 -78 -237l137 -134l-92 -96l-137 138q-105 -76 -239 -76q-136 0 -240 76l-138 -138zM295 727q0 -113 80.5 -194 t194.5 -81q113 0 194.5 81t81.5 194t-83 194t-193 81q-116 0 -195.5 -81t-79.5 -194z" />
<glyph unicode="&#xa5;" d="M68 1434h192l250 -514q28 -58 47 -111h4q13 42 49 117l252 508h180l-356 -656h285v-139h-334v-207h334v-139h-334v-293h-164v293h-344v139h344v207h-344v139h291z" />
<glyph unicode="&#xa6;" horiz-adv-x="490" d="M172 370h148v-852h-148v852zM172 715v851h148v-851h-148z" />
<glyph unicode="&#xa7;" horiz-adv-x="918" d="M131 733q0 163 147 244q-106 83 -106 223q0 127 93.5 209t246.5 82q130 0 219 -43v-158q-101 62 -223 62q-168 0 -168 -144q0 -55 40.5 -100t203.5 -123q223 -107 223 -293q0 -170 -149 -276q90 -74 90 -186q0 -132 -100 -214t-255 -82q-131 0 -239 56v158 q130 -74 250 -74q84 0 130 39.5t46 99.5q0 53 -35.5 89.5t-180.5 113.5q-233 122 -233 317zM297 746q0 -72 56.5 -126.5t197.5 -117.5q88 68 88 172q0 72 -52.5 122.5t-188.5 108.5q-101 -51 -101 -159z" />
<glyph unicode="&#xa8;" horiz-adv-x="848" d="M125 1317q0 42 28.5 70t69.5 28t71 -28.5t30 -69.5t-29 -70t-69 -29q-42 0 -71.5 29.5t-29.5 69.5zM512 1317q0 42 28 70t68 28q42 0 71 -28.5t29 -69.5t-28 -70t-70 -29q-40 0 -69 28t-29 71z" />
<glyph unicode="&#xa9;" horiz-adv-x="1823" d="M162 717q0 311 219.5 530.5t530.5 219.5q310 0 529.5 -219.5t219.5 -530.5t-219.5 -530.5t-529.5 -219.5q-099ADE9AE8" />
<glyph unicode="&#xaa;" horiz-adv-x="803" d="M82 910q0 202 248 235l229 31q0 168 -151 168q-136 0 -254 -86v128q111 70 266 70q126 0 197 -72t71 -202v-465h-129v100h-4q-79 -119 -231 -119q-109 0 -175.5 59.5t-66.5 152.5zM211 916q0 -51 38.5 -83t102.5 -32q82 0 144.5 61t62.5 146v67l-180 -25 q-168 -23 -168 -134z" />
<glyph unicode="&#xab;" horiz-adv-x="1036" d="M92 536l299 344h166l-303 -344l303 -336h-166zM479 536l299 344h170l-307 -344l305 -336h-168z" />
<glyph unicode="&#xac;" horiz-adv-x="1401" d="M232 684v133h940v-563h-132v430h-808z" />
<glyph unicode="&#xad;" horiz-adv-x="819" d="M144 506v129h546v-129h-546z" />
<glyph unicode="&#xae;" horiz-adv-x="1823" d="M162 717q0 311 219.5 530.5t530.5 219.5q310 0 529.5 -219.5t219.5 -530.5t-219.5 -530.5t-529.5 -219.5q-311 0 -530.5 219.5t-219.5 530.5zM250 717q0 -274 194 -467.5t468 -193.5t467.5 193.5t193.5 467.5t-193.5 468t-467.5 194t-468 -194t-194 -468zM619 248v954 h268q167 0 257.5 -70t90.5 -190q0 -98 -63.5 -167t-177.5 -93v-4q79 -17 157 -176l125 -254h-162l-104 229q-79 172 -170 172h-88v-401h-133zM752 762h143q197 0 197 164q0 88 -53 125t-168 37h-119v-326z" />
<glyph unicode="&#xaf;" horiz-adv-x="850" d="M0 1396v120h850v-120h-850z" />
<glyph unicode="&#xb0;" horiz-adv-x="772" d="M108 1176q0 115 80 194.5t195 79.5q116 0 197.5 -80t81.5 -194q0 -116 -81 -197.5t-196 -81.5t-196 81.5t-81 197.5zM228 1176q0 -67 45 -114.5t110 -47.5t112 48t47 114t-46 111.5t-111 45.5t-111 -46t-46 -111z" />
<glyph unicode="&#xb1;" horiz-adv-x="1401" d="M232 0v133h940v-133h-940zM232 652v132h405v404h131v-404h404v-132h-404v-404h-131v404h-405z" />
<glyph unicode="&#xb2;" horiz-adv-x="750" d="M104 884v114l240 236q104 102 132 156.5t28 109.5q0 58 -38 94.5t-100 36.5q-118 0 -216 -102v149q84 76 235 76q118 0 187 -66t69 -174q0 -153 -205 -348l-164 -156v-4h386v-122h-554z" />
<glyph unicode="&#xb3;" horiz-adv-x="750" d="M129 916v142q103 -76 217 -76q80 0 126 37.5t46 101.5q0 141 -219 141h-84v118h80q197 0 197 134q0 119 -144 119q-94 0 -186 -69v139q87 51 213 51q113 0 180 -59.5t67 -155.5q0 -151 -145 -205v-4q177 -42 177 -202q0 -117 -85 -191t-227 -74q-137 0 -213 53z" />
<glyph unicode="&#xb4;" horiz-adv-x="578" d="M135 1218l223 328h166l-262 -328h-127z" />
<glyph unicode="&#xb5;" horiz-adv-x="1182" d="M166 -396v1420h163v-626q0 -127 69 -202t180 -75q121 0 196.5 86t75.5 231v586h166v-759q0 -188 32 -265h-170q-23 72 -23 168h-5q-84 -191 -279 -191q-167 0 -238 123h-4v-496h-163z" />
<glyph unicode="&#xb6;" horiz-adv-x="938" d="M84 1170q0 117 74.5 190.5t181.5 73.5h494v-103h-128v-1331h-106v1331h-158v-1331h-108v903q-108 0 -179 76t-71 191z" />
<glyph unicode="&#xb7;" horiz-adv-x="444" d="M112 622q0 47 32.5 80t78.5 33q47 0 80 -33t33 -80q0 -46 -33 -79t-80 -33q-46 0 -78.5 33t-32.5 79z" />
<glyph unicode="&#xb8;" horiz-adv-x="420" d="M51 -340q43 -6 70 -6q141 0 141 90q0 78 -129 78q-10 0 -41 -4v182h108v-104q88 0 139.5 -40t51.5 -112q0 -176 -275 -176q-38 0 -65 2v90z" />
<glyph unicode="&#xb9;" horiz-adv-x="719" d="M127 1535v125l323 96v-760h189v-112h-504v112h185v594z" />
<glyph unicode="&#xba;" horiz-adv-x="882" d="M78 1069q0 181 102.5 283t271.5 102q163 0 257 -99.5t94 -270.5q0 -178 -99.5 -283t-267.5 -105q-167 0 -262.5 100.5t-95.5 272.5zM213 1073q0 -124 59.5 -194t169.5 -70q105 0 166.5 71.5t61.5 194.5q0 126 -60.5 197.5t-165.5 71.5q-106 0 -168.5 -72t-62.5 -199z" />
<glyph unicode="&#xbb;" horiz-adv-x="1036" d="M90 200l308 338l-308 342h170l299 -342l-299 -338h-170zM482 200l302 338l-302 342h165l301 -342l-301 -338h-165z" />
<glyph unicode="&#xbc;" horiz-adv-x="1856" d="M127 1235v125l323 96v-760h189v-112h-504v112h185v594zM391 0l859 1434h143l-858 -1434h-144zM1071 204v92l369 554h156v-537h110v-109h-110v-204h-132v204h-393zM1208 313h256v323q0 32 4 88h-4q-12 -31 -38 -73z" />
<glyph unicode="&#xbd;" horiz-adv-x="1906" d="M127 1235v125l323 96v-760h189v-112h-504v112h185v594zM391 0l859 1434h143l-858 -1434h-144zM1194 1v114l240 236q104 102 132 156.5t28 109.5q0 58 -38 94.5t-100 36.5q-118 0 -216 -102v149q84 76 235 76q118 0 187 -66t69 -174q0 -153 -205 -348l-164 -156v-4h386 v-122h-554z" />
<glyph unicode="&#xbe;" horiz-adv-x="1950" d="M129 616v142q103 -76 217 -76q80 0 126 37.5t46 101.5q0 141 -219 141h-84v118h80q197 0 197 134q0 119 -144 119q-94 0 -186 -69v139q87 51 213 51q113 0 180 -59.5t67 -155.5q0 -151 -145 -205v-4q177 -42 177 -202q0 -117 -85 -191t-227 -74q-137 0 -213 53zM462 0 l859 1434h143l-858 -1434h-144zM1136 204v92l369 554h156v-537h110v-109h-110v-204h-132v204h-393zM1273 313h256v323q0 32 4 88h-4q-12 -31 -38 -73z" />
<glyph unicode="&#xbf;" horiz-adv-x="918" d="M143 -115q0 74 26 132t65.5 106.5t85.5 90.5t85.5 83.5t65.5 86.5t26 99q0 46 -11 83.5t-22 63.5h161q9 -26 16 -67.5t7 -82.5q0 -64 -25.5 -115.5t-63.5 -96.5t-83 -86.5t-83 -84t-63.5 -89t-25.5 -102.5q0 -48 18.5 -85t50.5 -62t74 -37.5t89 -12.5q169 0 293 133v-176 q-153 -96 -317 -96q-76 0 -143 20t-117 59.5t-79.5 98.5t-29.5 137zM424 936q0 47 33 78q34 32 78 32t78 -32q33 -31 33 -78q0 -46 -33 -78q-33 -33 -78 -33t-78 33q-33 32 -33 78z" />
<glyph unicode="&#xc0;" horiz-adv-x="1321" d="M22 0l550 1434h174l552 -1434h-186l-152 402h-608l-143 -402h-187zM369 1894h168l221 -328h-127zM408 553h497l-225 611q-11 30 -22 96h-4q-10 -61 -23 -96z" />
<glyph unicode="&#xc1;" horiz-adv-x="1321" d="M22 0l550 1434h174l552 -1434h-186l-152 402h-608l-143 -402h-187zM408 553h497l-225 611q-11 30 -22 96h-4q-10 -61 -23 -96zM478 1566l223 328h166l-262 -328h-127z" />
<glyph unicode="&#xc2;" horiz-adv-x="1321" d="M22 0l550 1434h174l552 -1434h-186l-152 402h-608l-143 -402h-187zM363 1565l215 332h133l216 -332h-122l-164 230l-165 -230h-113zM408 553h497l-225 611q-11 30 -22 96h-4q-10 -61 -23 -96z" />
<glyph unicode="&#xc3;" horiz-adv-x="1321" d="M22 0l550 1434h174l552 -1434h-186l-152 402h-608l-143 -402h-187zM336 1547q0 107 48 171.5t134 64.5q65 0 149 -52q74 -44 128 -44q84 0 84 116h98q0 -105 -48 -171.5t-130 -66.5q-71 0 -162 52q-77 43 -119 43q-88 0 -88 -113h-94zM408 553h497l-225 611 q-11 30 -22 96h-4q-10 -61 -23 -96z" />
<glyph unicode="&#xc4;" horiz-adv-x="1321" d="M22 0l550 1434h174l552 -1434h-186l-152 402h-608l-143 -402h-187zM355 1664q0 42 28.5 70t69.5 28t71 -28.5t30 -69.5t-29 -70t-69 -29q-42 0 -71.5 29.5t-29.5 69.5zM408 553h497l-225 611q-11 30 -22 96h-4q-10 -61 -23 -96zM742 1664q0 42 28 70t68 28q42 0 71 -28.5 t29 -69.5t-28 -70t-70 -29q-40 0 -69 28t-29 71z" />
<glyph unicode="&#xc5;" horiz-adv-x="1321" d="M22 0l529 1378q-101 52 -101 164q0 89 60 144t152 55q88 0 144 -54.5t56 -138.5q0 -112 -96 -166l532 -13802FCCE5AB1" />
<glyph unicode="&#xc6;" horiz-adv-x="1762" d="M10 0l700 1434h924v-152h-559v-477h519v-151h-519v-502h592v-152h-759v402h-510l-193 -402h-195zM467 553h441v729h-95z" />
<glyph unicode="&#xc7;" horiz-adv-x="1268" d="M94 690q0 344 207 556t525 212q204 0 338 -59v-179q-154 86 -340 86q-247 0 -400.5 -165t-153.5 -441q0 -262 143.5 -417.5t376.5 -155.5q216 0 374 96v-163q-159 -84 -396 -84q-306 0 -490 197t-184 517zM620 -340q43 -6 70 -6q141 0 141 90q0 78 -129 78q-10 0 -41 -4 v182h108v-104q88 0 139.5 -40t51.5 -112q0 -176 -275 -176q-38 0 -65 2v90z" />
<glyph unicode="&#xc8;" horiz-adv-x="1036" d="M188 0v1434h728v-152h-560v-477h518v-151h-518v-502h592v-152h-760zM314 1894h168l221 -328h-127z" />
<glyph unicode="&#xc9;" horiz-adv-x="1036" d="M188 0v1434h728v-152h-560v-477h518v-151h-518v-502h592v-152h-760zM414 1565l223 328h166l-262 -328h-127z" />
<glyph unicode="&#xca;" horiz-adv-x="1036" d="M188 0v1434h728v-152h-560v-477h518v-151h-518v-502h592v-152h-760zM263 1567l215 332h133l216 -332h-122l-164 230l-165 -230h-113z" />
<glyph unicode="&#xcb;" horiz-adv-x="1036" d="M188 0v1434h728v-152h-560v-477h518v-151h-518v-502h592v-152h-760zM264 1665q0 42 28.5 70t69.5 28t71 -28.5t30 -69.5t-29 -70t-69 -29q-42 0 -71.5 29.5t-29.5 69.5zM651 1665q0 42 28 70t68 28q42 0 71 -28.5t29 -69.5t-28 -70t-70 -29q-40 0 -69 28t-29 71z" />
<glyph unicode="&#xcc;" horiz-adv-x="545" d="M27 1894h168l221 -328h-127zM48 0v144h140v1146h-140v144h448v-144h-140v-1146h140v-144h-448z" />
<glyph unicode="&#xcd;" horiz-adv-x="545" d="M48 0v144h140v1146h-140v144h448v-144h-140v-1146h140v-144h-448zM120 1566l223 328h166l-262 -328h-127z" />
<glyph unicode="&#xce;" horiz-adv-x="545" d="M-4 1567l215 332h133l216 -332h-122l-164 230l-165 -230h-113zM48 0v144h140v1146h-140v144h448v-144h-140v-1146h140v-144h-448z" />
<glyph unicode="&#xcf;" horiz-adv-x="545" d="M-15 1665q0 42 28.5 70t69.5 28t71 -28.5t30 -69.5t-29 -70t-69 -29q-42 0 -71.5 29.5t-29.5 69.5zM48 0v144h140v1146h-140v144h448v-144h-140v-1146h140v-144h-448zM372 1665q0 42 28 70t68 28q42 0 71 -28.5t29 -69.5t-28 -70t-70 -29q-40 0 -69 28t-29 71z" />
<glyph unicode="&#xd0;" horiz-adv-x="1436" d="M28 641v155h160v638h396q758 0 758 -699q0 -334 -210.5 -534.5t-563.5 -200.5h-380v641h-160zM356 152h214q282 0 439 151t157 428q0 551 -586 551h-224v-486h336v-155h-336v-489z" />
<glyph unicode="&#xd1;" horiz-adv-x="1532" d="M188 0v1434h218l718 -1125q45 -70 58 -96h4q-10 62 -10 211v1010h168v-1434h-206l-738 1143q-28 43 -46 90h-6q8 -46 8 -197v-1036h-168zM472 1547q0 107 48 171.5t134 64.5q65 0 149 -52q74 -44 128 -44q84 0 84 116h98q0 -105 -48 -171.5t-130 -66.5q-71 0 -162 52 q-77 43 -119 43q-88 0 -88 -113h-94z" />
<glyph unicode="&#xd2;" horiz-adv-x="1544" d="M94 700q0 346 187 552t509 206q297 0 478.5 -200t181.5 -523q0 -351 -186 -555t-498 -204q-305 0 -488.5 201t-183.5 523zM270 715q0 -265 137.5 -426.5t358.5 -161.5q236 0 372 154t136 431q0 284 -132 439t-364 155q-226 0 -367 -163t-141 -428zM491 1894h168l221 -328 h-127z" />
<glyph unicode="&#xd3;" horiz-adv-x="1544" d="M94 700q0 346 187 552t509 206q297 0 478.5 -200t181.5 -523q0 -351 -186 -555t-498 -204q-305 0 -488.5 201t-183.5 523zM270 715q0 -265 137.5 -426.5t358.5 -161.5q236 0 372 154t136 431q0 284 -132 439t-364 155q-226 0 -367 -163t-141 -428zM639 1566l223 328h166 l-262 -328h-127z" />
<glyph unicode="&#xd4;" horiz-adv-x="1544" d="M94 700q0 346 187 552t509 206q297 0 478.5 -200t181.5 -523q0 -351 -186 -555t-498 -204q-305 0 -488.5 201t-183.5 523zM270 715q0 -265 137.5 -426.5t358.5 -161.5q236 0 372 154t136 431q0 284 -132 439t-364 155q-226 0 -367 -163t-141 -428zM499 1566l215 332h133 l216 -332h-122l-164 230l-165 -230h-113z" />
<glyph unicode="&#xd5;" horiz-adv-x="1544" d="M94 700q0 346 187 552t509 206q297 0 478.5 -200t181.5 -523q0 -351 -186 -555t-498 -204q-305 0 -488.5 201t-183.5 523zM270 715q0 -265 137.5 -426.5t358.5 -161.5q236 0 372 154t136 431q0 284 -132 439t-364 155q-226 0 -367 -163t-141 -428zM462 1546 q0 107 48 171.5t134 64.5q65 0 149 -52q74 -44 128 -44q84 0 84 116h98q0 -105 -48 -171.5t-130 -66.5q-71 0 -162 52q-77 43 -119 43q-88 0 -88 -113h-94z" />
<glyph unicode="&#xd6;" horiz-adv-x="1544" d="M94 700q0 346 187 552t509 206q297 0 478.5 -200t181.5 -523q0 -351 -186 -555t-498 -204q-305 0 -488.5 201t-183.5 523zM270 715q0 -265 137.5 -426.5t358.5 -161.5q236 0 372 154t136 431q0 284 -132 439t-364 155q-226 0 -367 -163t-141 -428zM483 1662q0 42 28.5 70 t69.5 28t71 -28.5t30 -69.5t-29 -70t-69 -29q-42 0 -71.5 29.5t-29.5 69.5zM870 1662q0 42 28 70t68 28q42 0 71 -28.5t29 -69.5t-28 -70t-70 -29q-40 0 -69 28t-29 71z" />
<glyph unicode="&#xd7;" horiz-adv-x="1401" d="M268 258l340 338l-340 340l94 94l338 -340l340 340l94 -94l-340 -340l340 -338l-94 -94l-340 340l-338 -340z" />
<glyph unicode="&#xd8;" horiz-adv-x="1544" d="M94 14l158 191q-158 195 -158 495q0 343 186.5 550.5t509.5 207.5q234 0 402 -129l135 162l78 -63l-139 -166q184 -200 184 -527q0 -351 -186 -555t-498 -204q-266 0 -442 155l-152 -182zM270 715q0 -223 98 -373l722 862q-126 102 -312 102q-227 0 -367.5 -164 t-140.5 -427zM432 264q131 -137 334 -137q236 0 372 154.5t136 430.5q0 260 -117 418z" />
<glyph unicode="&#xd9;" horiz-adv-x="1407" d="M170 557v877h168v-866q0 -441 372 -441q359 0 359 426v881h168v-854q0 -604 -545 -604q-522 0 -522 581zM441 1894h168l221 -328h-127z" />
<glyph unicode="&#xda;" horiz-adv-x="1407" d="M170 557v877h168v-866q0 -441 372 -441q359 0 359 426v881h168v-854q0 -604 -545 -604q-522 0 -522 581zM571 1565l223 328h166l-262 -328h-127z" />
<glyph unicode="&#xdb;" horiz-adv-x="1407" d="M170 557v877h168v-866q0 -441 372 -441q359 0 359 426v881h168v-854q0 -604 -545 -604q-522 0 -522 581zM423 1567l215 332h133l216 -332h-122l-164 230l-165 -230h-113z" />
<glyph unicode="&#xdc;" horiz-adv-x="1407" d="M170 557v877h168v-866q0 -441 372 -441q359 0 359 426v881h168v-854q0 -604 -545 -604q-522 0 -522 581zM410 1666q0 42 28.5 70t69.5 28t71 -28.5t30 -69.5t-29 -70t-69 -29q-42 0 -71.5 29.5t-29.5 69.5zM797 1666q0 42 28 70t68 28q42 0 71 -28.5t29 -69.5t-28 -70 t-70 -29q-40 0 -69 28t-29 71z" />
<glyph unicode="&#xdd;" horiz-adv-x="1132" d="M18 1434h191l321 -648q6 -12 35 -88h3q10 34 38 88l336 648h178l-473 -904v-530h-168v526zM442 1566l223 328h166l-262 -328h-127z" />
<glyph unicode="&#xde;" horiz-adv-x="1147" d="M188 0v1434h168v-226h226q232 0 357.5 -111.5t125.5 -316.5q0 -204 -141.5 -333t-381.5 -129h-186v-318h-168zM356 469h176q173 0 265 78t92 223q0 287 -336 287h-197v-588z" />
<glyph unicode="&#xdf;" horiz-adv-x="1114" d="M166 0v1114q0 192 110 308t296 116q166 0 265 -95t99 -251q0 -127 -75 -228t-195 -140v-5q378 -75 378 -426q0 -177 -111 -297t-294 -120q-101 0 -178 26v160q75 -48 170 -48q109 0 177 73.5t68 197.5q0 150 -100 243.5t-278 113.5v130q118 20 194 103t76 197 q0 108 -55 167.5t-152 59.5q-231 0 -231 -309v-1090h-164z" />
<glyph unicode="&#xe0;" horiz-adv-x="1042" d="M90 272q0 287 338 334l307 43q0 261 -211 261q-185 0 -334 -126v168q151 96 348 96q361 0 361 -382v-666h-164v160h-4q-107 -184 -315 -184q-153 0 -239.5 81t-86.5 215zM258 284q0 -75 53.5 -122.5t142.5 -47.5q122 0 201.5 85.5t79.5 216.5v102l-247 -34 q-114 -16 -172 -56.5t-58 -143.5zM285 1546h168l221 -328h-127z" />
<glyph unicode="&#xe1;" horiz-adv-x="1042" d="M90 272q0 287 338 334l307 43q0 261 -211 261q-185 0 -334 -126v168q151 96 348 96q361 0 361 -382v-666h-164v160h-4q-107 -184 -315 -184q-153 0 -239.5 81t-86.5 215zM258 284q0 -75 53.5 -122.5t142.5 -47.5q122 0 201.5 85.5t79.5 216.5v102l-247 -34 q-114 -16 -172 -56.5t-58 -143.5zM368 1218l223 328h166l-262 -328h-127z" />
<glyph unicode="&#xe2;" horiz-adv-x="1042" d="M90 272q0 287 338 334l307 43q0 261 -211 261q-185 0 -334 -126v168q151 96 348 96q361 0 361 -382v-666h-067117DA30" />
<glyph unicode="&#xe3;" horiz-adv-x="1042" d="M90 272q0 287 338 334l307 43q0 261 -211 261q-185 0 -334 -126v168q151 96 348 96q361 0 361 -382v-666h-0A762B0AAB" />
<glyph unicode="&#xe4;" horiz-adv-x="1042" d="M90 272q0 287 338 334l307 43q0 261 -211 261q-185 0 -334 -126v168q151 96 348 96q361 0 361 -382v-666h-164v160h-4q-107 -184 -315 -184q-153 0 -239.5 81t-86.5 215zM223 1317q0 42 28.5 70t69.5 28t71 -28.5t30 -69.5t-29 -70t-69 -29q-42 0 -71.5 29.5t-29.5 69.5z M258 284q0 -75 53.5 -122.5t142.5 -47.5q122 0 201.5 85.5t79.5 216.5v102l-247 -34q-114 -16 -172 -56.5t-58 -143.5zM610 1317q0 42 28 70t68 28q42 0 71 -28.5t29 -69.5t-28 -70t-70 -29q-40 0 -69 28t-29 71z" />
<glyph unicode="&#xe5;" horiz-adv-x="1042" d="M90 272q0 287 338 334l307 43q0 261 -211 261q-185 0 -334 -126v168q151 96 348 96q361 0 361 -382v-666h-0E6A59EA02" />
<glyph unicode="&#xe6;" horiz-adv-x="1704" d="M90 272q0 300 383 324l262 16q0 298 -215 298q-175 0 -330 -122v164q148 96 348 96q232 0 300 -200h4q116 200 356 200q202 0 313 -130.5t111 -362.5v-84h-725q3 -171 91 -264t241 -93q177 0 321 114v-154q-132 -98 -358 -98q-270 0 -383 229h-4q-145 -229 -387 -229 q-153 0 -240.5 80.5t-87.5 215.5zM256 276q0 -73 53 -117.5t143 -44.5q119 0 201 84.5t82 211.5v63l-203 -12q-139 -8 -207.5 -49t-68.5 -136zM899 610h555q-2 144 -68.5 222t-185.5 78q-116 0 -199 -82t-102 -218z" />
<glyph unicode="&#xe7;" horiz-adv-x="946" d="M96 488q0 253 145 406.5t387 153.5q135 0 238 -50v-168q-114 80 -244 80q-157 0 -257.5 -112.5t-100.5 -295.5q0 -180 94.5 -284t253.5 -104q134 0 252 89v-156q-118 -71 -280 -71q-219 0 -353.5 142.5t-134.5 369.5zM438 -340q43 -6 70 -6q141 0 141 90q0 78 -129 78 q-10 0 -41 -4v182h108v-104q88 0 139.5 -40t51.5 -112q0 -176 -275 -176q-38 0 -65 2v90z" />
<glyph unicode="&#xe8;" horiz-adv-x="1071" d="M96 508q0 239 135.5 389.5t336.5 150.5t311 -130t110 -361v-86h-723q4 -171 92 -264t242 -93q173 0 318 114v-154q-135 -98 -357 -98q-217 0 -341 139.5t-124 392.5zM268 610h553q-1 142 -68.5 221t-187.5 79q-116 0 -197 -83t-100 -217zM336 1546h168l221 -328h-127z " />
<glyph unicode="&#xe9;" horiz-adv-x="1071" d="M96 508q0 239 135.5 389.5t336.5 150.5t311 -130t110 -361v-86h-723q4 -171 92 -264t242 -93q173 0 318 114v-154q-135 -98 -357 -98q-217 0 -341 139.5t-124 392.5zM268 610h553q-1 142 -68.5 221t-187.5 79q-116 0 -197 -83t-100 -217zM406 1218l223 328h166l-262 -328 h-127z" />
<glyph unicode="&#xea;" horiz-adv-x="1071" d="M96 508q0 239 135.5 389.5t336.5 150.5t311 -130t110 -361v-86h-723q4 -171 92 -264t242 -93q173 0 318 114v-154q-135 -98 -357 -98q-217 0 -341 139.5t-124 392.5zM268 610h553q-1 142 -68.5 221t-187.5 79q-116 0 -197 -83t-100 -217zM276 1218l215 332h133l216 -332 h-122l-164 230l-165 -230h-113z" />
<glyph unicode="&#xeb;" horiz-adv-x="1071" d="M96 508q0 239 135.5 389.5t336.5 150.5t311 -130t110 -361v-86h-723q4 -171 92 -264t242 -93q173 0 318 114v-154q-135 -98 -357 -98q-217 0 -341 139.5t-124 392.5zM261 1317q0 42 28.5 70t69.5 28t71 -28.5t30 -69.5t-29 -70t-69 -29q-42 0 -71.5 29.5t-29.5 69.5z M268 610h553q-1 142 -68.5 221t-187.5 79q-116 0 -197 -83t-100 -217zM648 1317q0 42 28 70t68 28q42 0 71 -28.5t29 -69.5t-28 -70t-70 -29q-40 0 -69 28t-29 71z" />
<glyph unicode="&#xec;" horiz-adv-x="496" d="M-20 1546h168l221 -328h-127zM166 0v1024h164v-1024h-164z" />
<glyph unicode="&#xed;" horiz-adv-x="496" d="M88 1218l223 328h166l-262 -328h-127zM166 0v1024h164v-1024h-164z" />
<glyph unicode="&#xee;" horiz-adv-x="496" d="M-45 1218l215 332h133l216 -332h-122l-164 230l-165 -230h-113zM166 0v1024h164v-1024h-164z" />
<glyph unicode="&#xef;" horiz-adv-x="496" d="M-55 1317q0 42 28.5 70t69.5 28t71 -28.5t30 -69.5t-29 -70t-69 -29q-42 0 -71.5 29.5t-29.5 69.5zM166 0v1024h164v-1024h-164zM332 1317q0 42 28 70t68 28q42 0 71 -28.5t29 -69.5t-28 -70t-70 -29q-40 0 -69 28t-29 71z" />
<glyph unicode="&#xf0;" horiz-adv-x="1145" d="M96 500q0 243 130 394.5t350 151.5q123 0 210 -78l4 3q-90 162 -198 266l-299 -151l-51 98l270 131q-118 108179D2A6D" />
<glyph unicode="&#xf1;" horiz-adv-x="1159" d="M166 0v1024h164v-170h4q116 194 336 194q168 0 257 -108.5t89 -313.5v-626h-164v584q0 326 -238 326q-123 0 -203.5 -92.5t-80.5 -233.5v-584h-164zM267 1202q0 107 48 171.5t134 64.5q65 0 149 -52q74 -44 128 -44q84 0 84 116h98q0 -105 -48 -171.5t-130 -66.5 q-71 0 -162 52q-77 43 -119 43q-88 0 -88 -113h-94z" />
<glyph unicode="&#xf2;" horiz-adv-x="1200" d="M96 500q0 258 141 403t381 145q229 0 357.5 -141t128.5 -391q0 -245 -138.5 -392.5t-371.5 -147.5q-227 0 -362.5 143.5t-135.5 380.5zM264 506q0 -182 93 -287t249 -105q159 0 244.5 103t85.5 293q0 192 -85.5 296t-244.5 104q-158 0 -250 -107.5t-92 -296.5zM358 1546 h168l221 -328h-127z" />
<glyph unicode="&#xf3;" horiz-adv-x="1200" d="M96 500q0 258 141 403t381 145q229 0 357.5 -141t128.5 -391q0 -245 -138.5 -392.5t-371.5 -147.5q-227 0 -362.5 143.5t-135.5 380.5zM264 506q0 -182 93 -287t249 -105q159 0 244.5 103t85.5 293q0 192 -85.5 296t-244.5 104q-158 0 -250 -107.5t-92 -296.5zM457 1218 l223 328h166l-262 -328h-127z" />
<glyph unicode="&#xf4;" horiz-adv-x="1200" d="M96 500q0 258 141 403t381 145q229 0 357.5 -141t128.5 -391q0 -245 -138.5 -392.5t-371.5 -147.5q-227 0 -362.5 143.5t-135.5 380.5zM264 506q0 -182 93 -287t249 -105q159 0 244.5 103t85.5 293q0 192 -85.5 296t-244.5 104q-158 0 -250 -107.5t-92 -296.5zM321 1218 l215 332h133l216 -332h-122l-164 230l-165 -230h-113z" />
<glyph unicode="&#xf5;" horiz-adv-x="1200" d="M96 500q0 258 141 403t381 145q229 0 357.5 -141t128.5 -391q0 -245 -138.5 -392.5t-371.5 -147.5q-227 0 -362.5 143.5t-135.5 380.5zM264 506q0 -182 93 -287t249 -105q159 0 244.5 103t85.5 293q0 192 -85.5 296t-244.5 104q-158 0 -250 -107.5t-92 -296.5zM290 1202 q0 107 48 171.5t134 64.5q65 0 149 -52q74 -44 128 -44q84 0 84 116h98q0 -105 -48 -171.5t-130 -66.5q-71 0 -162 52q-77 43 -119 43q-88 0 -88 -113h-94z" />
<glyph unicode="&#xf6;" horiz-adv-x="1200" d="M96 500q0 258 141 403t381 145q229 0 357.5 -141t128.5 -391q0 -245 -138.5 -392.5t-371.5 -147.5q-227 0 -362.5 143.5t-135.5 380.5zM264 506q0 -182 93 -287t249 -105q159 0 244.5 103t85.5 293q0 192 -85.5 296t-244.5 104q-158 0 -250 -107.5t-92 -296.5zM308 1317 q0 42 28.5 70t69.5 28t71 -28.5t30 -69.5t-29 -70t-69 -29q-42 0 -71.5 29.5t-29.5 69.5zM695 1317q0 42 28 70t68 28q42 0 71 -28.5t29 -69.5t-28 -70t-70 -29q-40 0 -69 28t-29 71z" />
<glyph unicode="&#xf7;" horiz-adv-x="1401" d="M232 530v134h940v-134h-940zM598 215q0 45 30 78t76 33q101 0 101 -109q0 -45 -29 -75t-72 -30q-44 0 -75 07733EFA70" />
<glyph unicode="&#xf8;" horiz-adv-x="1200" d="M49 -4l149 164q-102 137 -102 340q0 258 142 403t382 145q184 0 308 -98l162 176l84 -78l-168 -180q98 -138 98 -346q0 -252 -139 -399t-371 -147q-192 0 -318 102l-145 -160zM264 506q0 -132 50 -224l507 554q-79 74 -215 74q-159 0 -250.5 -107.5t-91.5 -296.5z M383 190q87 -76 221 -76q163 0 248.5 104t85.5 294q0 134 -47 230z" />
<glyph unicode="&#xf9;" horiz-adv-x="1159" d="M144 412v612h163v-586q0 -324 248 -324q120 0 197.5 88.5t77.5 231.5v590h164v-1024h-164v162h-4q-102 -186 -316 -186q-366 0 -366 436zM316 1546h168l221 -328h-127z" />
<glyph unicode="&#xfa;" horiz-adv-x="1159" d="M144 412v612h163v-586q0 -324 248 -324q120 0 197.5 88.5t77.5 231.5v590h164v-1024h-164v162h-4q-102 -186 -316 -186q-366 0 -366 436zM451 1218l223 328h166l-262 -328h-127z" />
<glyph unicode="&#xfb;" horiz-adv-x="1159" d="M144 412v612h163v-586q0 -324 248 -324q120 0 197.5 88.5t77.5 231.5v590h164v-1024h-164v162h-4q-102 -186 -316 -186q-366 0 -366 436zM290 1218l215 332h133l216 -332h-122l-164 230l-165 -230h-113z" />
<glyph unicode="&#xfc;" horiz-adv-x="1159" d="M144 412v612h163v-586q0 -324 248 -324q120 0 197.5 88.5t77.5 231.5v590h164v-1024h-164v162h-4q-102 -186 -316 -186q-366 0 -366 436zM285 1317q0 42 28.5 70t69.5 28t71 -28.5t30 -69.5t-29 -70t-69 -29q-42 0 -71.5 29.5t-29.5 69.5zM672 1317q0 42 28 70t68 28 q42 0 71 -28.5t29 -69.5t-28 -70t-70 -29q-40 0 -69 28t-29 71z" />
<glyph unicode="&#xfd;" horiz-adv-x="991" d="M14 1024h182l277 -788q5 -15 21 -78h6q5 24 20 76l291 790h170l-471 -1188q-126 -318 -354 -318q-64 0 -107 13v147q53 -18 97 -18q124 0 186 148l82 194zM373 1218l223 328h166l-262 -328h-127z" />
<glyph unicode="&#xfe;" horiz-adv-x="1204" d="M166 -471v1987h164v-672h4q121 204 354 204q198 0 309 -137.5t111 -368.5q0 -257 -125 -411.5t-342 -154.5q-199 0 -307 172h-4v-619h-164zM330 418q0 -127 82.5 -215.5t209.5 -88.5q149 0 233.5 114t84.5 317q0 171 -79 268t-214 97q-143 0 -230 -99.5t-87 -249.5v-143z " />
<glyph unicode="&#xff;" horiz-adv-x="991" d="M14 1024h182l277 -788q5 -15 21 -78h6q5 24 20 76l291 790h170l-471 -1188q-126 -318 -354 -318q-64 0 -107 13v147q53 -18 97 -18q124 0 186 148l82 194zM204 1317q0 42 28.5 70t69.5 28t71 -28.5t30 -69.5t-29 -70t-69 -29q-42 0 -71.5 29.5t-29.5 69.5zM591 1317 q0 42 28 70t68 28q42 0 71 -28.5t29 -69.5t-28 -70t-70 -29q-40 0 -69 28t-29 71z" />
<glyph unicode="&#x152;" horiz-adv-x="1906" d="M94 700q0 346 189.5 552t514.5 206q90 0 178 -10q112 -14 114 -14h688v-152h-560v-477h518v-151h-518v-502h592v-152h-720q-16 0 -138 -14q-98 -10 -182 -10q-312 0 -494 201t-182 523zM270 715q0 -258 139.5 -423t366.5 -165q116 0 274 33v1118q-160 28 -268 28 q-229 0 -370.5 -166t-141.5 -425z" />
<glyph unicode="&#x153;" horiz-adv-x="1900" d="M96 498q0 258 142 404t382 146q294 0 402 -235h4q119 235 385 235q196 0 305 -131.5t109 -357.5v-88h-725q08DCCF8ACC" />
<glyph unicode="&#x178;" horiz-adv-x="1132" d="M18 1434h191l321 -648q6 -12 35 -88h3q10 34 38 88l336 648h178l-473 -904v-530h-168v526zM274 1664q0 42 28.5 70t69.5 28t71 -28.5t30 -69.5t-29 -70t-69 -29q-42 0 -71.5 29.5t-29.5 69.5zM661 1664q0 42 28 70t68 28q42 0 71 -28.5t29 -69.5t-28 -70t-70 -29 q-40 0 -69 28t-29 71z" />
<glyph unicode="&#x2c6;" horiz-adv-x="760" d="M92 1218l215 332h133l216 -332h-122l-164 230l-165 -230h-113z" />
<glyph unicode="&#x2dc;" horiz-adv-x="690" d="M35 1202q0 107 48 171.5t134 64.5q65 0 149 -52q74 -44 128 -44q84 0 84 116h98q0 -105 -48 -171.5t-130 -66.5q-71 0 -162 52q-77 43 -119 43q-88 0 -88 -113h-94z" />
<glyph unicode="&#x2000;" horiz-adv-x="949" />
<glyph unicode="&#x2001;" horiz-adv-x="1899" />
<glyph unicode="&#x2002;" horiz-adv-x="949" />
<glyph unicode="&#x2003;" horiz-adv-x="1899" />
<glyph unicode="&#x2004;" horiz-adv-x="633" />
<glyph unicode="&#x2005;" horiz-adv-x="474" />
<glyph unicode="&#x2006;" horiz-adv-x="316" />
<glyph unicode="&#x2007;" horiz-adv-x="316" />
<glyph unicode="&#x2008;" horiz-adv-x="237" />
<glyph unicode="&#x2009;" horiz-adv-x="379" />
<glyph unicode="&#x200a;" horiz-adv-x="105" />
<glyph unicode="&#x2010;" horiz-adv-x="819" d="M144 506v129h546v-129h-546z" />
<glyph unicode="&#x2011;" horiz-adv-x="819" d="M144 506v129h546v-129h-546z" />
<glyph unicode="&#x2012;" horiz-adv-x="819" d="M144 506v129h546v-129h-546z" />
<glyph unicode="&#x2013;" horiz-adv-x="1024" d="M0 506v129h1024v-129h-1024z" />
<glyph unicode="&#x2014;" horiz-adv-x="2048" d="M0 506v129h2048v-129h-2048z" />
<glyph unicode="&#x2018;" horiz-adv-x="469" d="M106 1012l140 446h118l-108 -446h-150z" />
<glyph unicode="&#x2019;" horiz-adv-x="469" d="M110 1012l111 446h147l-140 -446h-118z" />
<glyph unicode="&#x201a;" horiz-adv-x="469" d="M88 -228l110 445h148l-141 -445h-117z" />
<glyph unicode="&#x201c;" horiz-adv-x="772" d="M106 1012l140 446h118l-108 -446h-150zM410 1012l141 446h117l-111 -446h-147z" />
<glyph unicode="&#x201d;" horiz-adv-x="772" d="M110 1012l111 446h147l-140 -446h-118zM414 1012l108 446h150l-140 -446h-118z" />
<glyph unicode="&#x201e;" horiz-adv-x="772" d="M88 -228l110 445h148l-141 -445h-117zM391 -228l109 445h149l-139 -445h-119z" />
<glyph unicode="&#x2022;" horiz-adv-x="832" d="M164 658q0 103 75 178.5t179 75.5t177 -75t73 -179t-73 -177t-177 -73t-179 73t-75 177z" />
<glyph unicode="&#x2026;" horiz-adv-x="1501" d="M140 92q0 46 31 79.5t77 33.5q45 0 77.5 -33.5t32.5 -79.5t-32 -78t-78 -32t-77 32t-31 78zM639 92q0 46 30F7317AA51" />
<glyph unicode="&#x202f;" horiz-adv-x="379" />
<glyph unicode="&#x2039;" horiz-adv-x="647" d="M92 536l299 344h168l-305 -344l303 -336h-166z" />
<glyph unicode="&#x203a;" horiz-adv-x="647" d="M92 200l304 338l-304 342h166l301 -342l-301 -338h-166z" />
<glyph unicode="&#x205f;" horiz-adv-x="474" />
<glyph unicode="&#x20ac;" d="M102 482v140h108q-4 31 -4 77q0 48 6 108h-110v140h131q51 240 192.5 375.5t343.5 135.5q137 0 245 -56v-162q-114 78 -256 78q-125 0 -222.5 -100.5t-136.5 -270.5h497v-140h-519q-8 -99 -1 -185h520v-140h-504q72 -366 350 -366q131 0 272 87v-153q-133 -74 -282 -74 q-427 0 -509 506h-121z" />
<glyph unicode="&#x2122;" horiz-adv-x="1583" d="M76 1336v98h526v-98h-209v-564h-111v564h-206zM686 772v662h127l225 -496h4l228 496h126v-662h-108v478h-4l-219 -478h-59l-214 478h-4v-478h-102z" />
<glyph unicode="&#x25fc;" horiz-adv-x="1025" d="M0 0v1025h1025v-1025h-1025z" />
<glyph unicode="&#xfb01;" horiz-adv-x="1136" d="M53 884v140h175v166q0 161 93 254.5t232 93.5q75 0 119 -18v-148q-48 27 -109 27q-172 0 -172 -217v-158h240v-140h-240v-884h-163v884h-175zM786 1390q0 45 31 76t76 31t77 -30.5t32 -76.5q0 -44 -32 -75t-77 -31t-76 30t-31 76zM809 0v1024h164v-1024h-164z" />
<glyph unicode="&#xfb02;" horiz-adv-x="1136" d="M53 884v140h175v166q0 161 93 254.5t232 93.5q75 0 119 -18v-148q-48 27 -109 27q-172 0 -172 -217v-158h240v-140h-240v-884h-163v884h-175zM813 0v1516h162v-1516h-162z" />
<hkern u1="&#x22;" u2="s" k="66" />
<hkern u1="&#x22;" u2="r" k="51" />
<hkern u1="&#x27;" u2="s" k="66" />
<hkern u1="&#x27;" u2="r" k="51" />
<hkern u1="&#x28;" u2="j" k="-233" />
<hkern u1="&#x2a;" u2="q" k="102" />
<hkern u1="&#x2a;" u2="o" k="102" />
<hkern u1="&#x2a;" u2="g" k="102" />
<hkern u1="&#x2a;" u2="e" k="102" />
<hkern u1="&#x2a;" u2="d" k="102" />
<hkern u1="&#x2a;" u2="c" k="102" />
<hkern u1="&#x2a;" u2="J" k="154" />
<hkern u1="&#x2a;" u2="A" k="166" />
<hkern u1="&#x2c;" u2="&#x201d;" k="207" />
<hkern u1="&#x2c;" u2="&#x201c;" k="207" />
<hkern u1="&#x2c;" u2="&#x2019;" k="207" />
<hkern u1="&#x2c;" u2="&#x2018;" k="207" />
<hkern u1="&#x2e;" u2="&#x201d;" k="195" />
<hkern u1="&#x2e;" u2="&#x201c;" k="207" />
<hkern u1="&#x2e;" u2="&#x2019;" k="195" />
<hkern u1="&#x2e;" u2="&#x2018;" k="207" />
<hkern u1="A" u2="&#x2122;" k="102" />
<hkern u1="A" u2="&#x201d;" k="193" />
<hkern u1="A" u2="&#x201c;" k="154" />
<hkern u1="A" u2="&#x2019;" k="193" />
<hkern u1="A" u2="&#x2018;" k="154" />
<hkern u1="A" u2="&#x178;" k="156" />
<hkern u1="A" u2="&#xff;" k="63" />
<hkern u1="A" u2="&#xfd;" k="37" />
<hkern u1="A" u2="&#xdd;" k="156" />
<hkern u1="A" u2="y" k="37" />
<hkern u1="A" u2="w" k="27" />
<hkern u1="A" u2="v" k="43" />
<hkern u1="A" u2="t" k="27" />
<hkern u1="A" u2="Z" k="-59" />
<hkern u1="A" u2="Y" k="156" />
<hkern u1="A" u2="W" k="74" />
<hkern u1="A" u2="V" k="117" />
<hkern u1="A" u2="U" k="27" />
<hkern u1="A" u2="T" k="147" />
<hkern u1="A" u2="O" k="27" />
<hkern u1="A" u2="J" k="-94" />
<hkern u1="A" u2="G" k="27" />
<hkern u1="A" u2="C" k="27" />
<hkern u1="A" u2="&#x3b;" k="-68" />
<hkern u1="A" u2="&#x2c;" k="-68" />
<hkern u1="A" u2="&#x2a;" k="129" />
<hkern u1="B" u2="&#x201e;" k="78" />
<hkern u1="B" u2="&#x201a;" k="78" />
<hkern u1="B" u2="&#x178;" k="66" />
<hkern u1="B" u2="&#xdd;" k="66" />
<hkern u1="B" u2="Y" k="66" />
<hkern u1="B" u2="T" k="92" />
<hkern u1="C" u2="&#x2039;" k="49" />
<hkern u1="C" u2="&#x152;" k="55" />
<hkern u1="C" u2="&#xef;" k="-29" />
<hkern u1="C" u2="&#xd8;" k="55" />
<hkern u1="C" u2="&#xd6;" k="55" />
<hkern u1="C" u2="&#xd5;" k="55" />
<hkern u1="C" u2="&#xd4;" k="55" />
<hkern u1="C" u2="&#xd3;" k="55" />
<hkern u1="C" u2="&#xd2;" k="55" />
<hkern u1="C" u2="&#xc7;" k="55" />
<hkern u1="C" u2="&#xab;" k="49" />
<hkern u1="C" u2="Q" k="55" />
<hkern u1="C" u2="O" k="27" />
<hkern u1="C" u2="G" k="55" />
<hkern u1="C" u2="C" k="55" />
<hkern u1="C" u2="&#x3f;" k="-2" />
<hkern u1="D" u2="&#x2026;" k="129" />
<hkern u1="D" u2="&#x201e;" k="117" />
<hkern u1="D" u2="&#x201a;" k="117" />
<hkern u1="D" u2="&#x178;" k="10" />
<hkern u1="D" u2="&#xc6;" k="74" />
<hkern u1="D" u2="&#xc5;" k="33" />
<hkern u1="D" u2="&#xc4;" k="33" />
<hkern u1="D" u2="&#xc3;" k="33" />
<hkern u1="D" u2="&#xc2;" k="33" />
<hkern u1="D" u2="&#xc1;" k="33" />
<hkern u1="D" u2="&#xc0;" k="33" />
<hkern u1="D" u2="Z" k="49" />
<hkern u1="D" u2="X" k="53" />
<hkern u1="D" u2="T" k="92" />
<hkern u1="D" u2="A" k="33" />
<hkern u1="D" u2="&#x2e;" k="129" />
<hkern u1="D" u2="&#x2c;" k="129" />
<hkern u1="E" u2="&#xef;" k="-18" />
<hkern u1="E" u2="&#xc5;" k="-10" />
<hkern u1="E" u2="&#xc4;" k="-10" />
<hkern u1="E" u2="&#xc3;" k="-10" />
<hkern u1="E" u2="&#xc2;" k="-10" />
<hkern u1="E" u2="&#xc1;" k="-10" />
<hkern u1="E" u2="&#xc0;" k="-10" />
<hkern u1="E" u2="X" k="-8" />
<hkern u1="E" u2="W" k="-29" />
<hkern u1="E" u2="T" k="-4" />
<hkern u1="E" u2="J" k="-68" />
<hkern u1="E" u2="A" k="-10" />
<hkern u1="F" u2="&#x2026;" k="154" />
<hkern u1="F" u2="&#x201e;" k="182" />
<hkern u1="F" u2="&#x201a;" k="182" />
<hkern u1="F" u2="&#xef;" k="-39" />
<hkern u1="F" u2="&#xc6;" k="180" />
<hkern u1="F" u2="&#xc5;" k="133" />
<hkern u1="F" u2="&#xc4;" k="133" />
<hkern u1="F" u2="&#xc3;" k="133" />
<hkern u1="F" u2="&#xc2;" k="133" />
<hkern u1="F" u2="&#xc1;" k="133" />
<hkern u1="F" u2="&#xc0;" k="133" />
<hkern u1="F" u2="f" k="-10" />
<hkern u1="F" u2="a" k="76" />
<hkern u1="F" u2="T" k="-14" />
<hkern u1="F" u2="S" k="27" />
<hkern u1="F" u2="J" k="66" />
<hkern u1="F" u2="A" k="133" />
<hkern u1="F" u2="&#x2e;" k="154" />
<hkern u1="F" u2="&#x2c;" k="154" />
<hkern u1="G" u2="&#xff;" k="27" />
<hkern u1="G" u2="&#xfd;" k="27" />
<hkern u1="G" u2="y" k="27" />
<hkern u1="G" u2="V" k="27" />
<hkern u1="G" u2="T" k="49" />
<hkern u1="J" u2="&#x2026;" k="102" />
<hkern u1="J" u2="&#x201e;" k="102" />
<hkern u1="J" u2="&#x201a;" k="154" />
<hkern u1="J" u2="&#xe6;" k="27" />
<hkern u1="J" u2="&#xe5;" k="27" />
<hkern u1="J" u2="&#xe4;" k="27" />
<hkern u1="J" u2="&#xe3;" k="27" />
<hkern u1="J" u2="&#xe2;" k="27" />
<hkern u1="J" u2="&#xe1;" k="27" />
<hkern u1="J" u2="&#xe0;" k="27" />
<hkern u1="J" u2="&#xc6;" k="104" />
<hkern u1="J" u2="&#xc5;" k="37" />
<hkern u1="J" u2="&#xc4;" k="37" />
<hkern u1="J" u2="&#xc3;" k="37" />
<hkern u1="J" u2="&#xc2;" k="37" />
<hkern u1="J" u2="&#xc1;" k="37" />
<hkern u1="J" u2="&#xc0;" k="37" />
<hkern u1="J" u2="a" k="27" />
<hkern u1="J" u2="J" k="66" />
<hkern u1="J" u2="A" k="37" />
<hkern u1="J" u2="&#x2e;" k="102" />
<hkern u1="J" u2="&#x2c;" k="102" />
<hkern u1="K" u2="&#x201e;" k="-68" />
<hkern u1="K" u2="&#x201a;" k="-68" />
<hkern u1="K" u2="&#x153;" k="27" />
<hkern u1="K" u2="&#x152;" k="90" />
<hkern u1="K" u2="&#xff;" k="92" />
<hkern u1="K" u2="&#xfd;" k="92" />
<hkern u1="K" u2="&#xf6;" k="27" />
<hkern u1="K" u2="&#xf5;" k="27" />
<hkern u1="K" u2="&#xf4;" k="27" />
<hkern u1="K" u2="&#xf3;" k="27" />
<hkern u1="K" u2="&#xf2;" k="27" />
<hkern u1="K" u2="&#xef;" k="-39" />
<hkern u1="K" u2="&#xed;" k="49" />
<hkern u1="K" u2="&#xeb;" k="27" />
<hkern u1="K" u2="&#xea;" k="27" />
<hkern u1="K" u2="&#xe9;" k="27" />
<hkern u1="K" u2="&#xe8;" k="27" />
<hkern u1="K" u2="&#xe7;" k="27" />
<hkern u1="K" u2="&#xd8;" k="90" />
<hkern u1="K" u2="&#xd6;" k="90" />
<hkern u1="K" u2="&#xd5;" k="90" />
<hkern u1="K" u2="&#xd4;" k="90" />
<hkern u1="K" u2="&#xd3;" k="90" />
<hkern u1="K" u2="&#xd2;" k="90" />
<hkern u1="K" u2="&#xc7;" k="102" />
<hkern u1="K" u2="y" k="92" />
<hkern u1="K" u2="w" k="53" />
<hkern u1="K" u2="v" k="74" />
<hkern u1="K" u2="t" k="47" />
<hkern u1="K" u2="q" k="27" />
<hkern u1="K" u2="o" k="27" />
<hkern u1="K" u2="g" k="27" />
<hkern u1="K" u2="e" k="27" />
<hkern u1="K" u2="d" k="27" />
<hkern u1="K" u2="c" k="27" />
<hkern u1="K" u2="Z" k="-39" />
<hkern u1="K" u2="X" k="-37" />
<hkern u1="K" u2="Q" k="90" />
<hkern u1="K" u2="O" k="90" />
<hkern u1="K" u2="J" k="-90" />
<hkern u1="K" u2="G" k="90" />
<hkern u1="K" u2="C" k="90" />
<hkern u1="K" u2="&#x3b;" k="-39" />
<hkern u1="K" u2="&#x2c;" k="-39" />
<hkern u1="L" u2="&#x2122;" k="102" />
<hkern u1="L" u2="&#x201e;" k="-68" />
<hkern u1="L" u2="&#x201d;" k="117" />
<hkern u1="L" u2="&#x201c;" k="141" />
<hkern u1="L" u2="&#x201a;" k="-68" />
<hkern u1="L" u2="&#x2019;" k="129" />
<hkern u1="L" u2="&#x2018;" k="141" />
<hkern u1="L" u2="&#x178;" k="102" />
<hkern u1="L" u2="&#x152;" k="70" />
<hkern u1="L" u2="&#xff;" k="76" />
<hkern u1="L" u2="&#xfd;" k="76" />
<hkern u1="L" u2="&#xdd;" k="129" />
<hkern u1="L" u2="&#xdc;" k="29" />
<hkern u1="L" u2="&#xdb;" k="29" />
<hkern u1="L" u2="&#xda;" k="29" />
<hkern u1="L" u2="&#xd9;" k="29" />
<hkern u1="L" u2="&#xd8;" k="70" />
<hkern u1="L" u2="&#xd6;" k="70" />
<hkern u1="L" u2="&#xd5;" k="70" />
<hkern u1="L" u2="&#xd4;" k="70" />
<hkern u1="L" u2="&#xd3;" k="70" />
<hkern u1="L" u2="&#xd2;" k="70" />
<hkern u1="L" u2="&#xc7;" k="66" />
<hkern u1="L" u2="y" k="76" />
<hkern u1="L" u2="w" k="66" />
<hkern u1="L" u2="v" k="102" />
<hkern u1="L" u2="t" k="27" />
<hkern u1="L" u2="Z" k="-59" />
<hkern u1="L" u2="Y" k="129" />
<hkern u1="L" u2="W" k="49" />
<hkern u1="L" u2="V" k="117" />
<hkern u1="L" u2="U" k="29" />
<hkern u1="L" u2="T" k="113" />
<hkern u1="L" u2="Q" k="70" />
<hkern u1="L" u2="O" k="70" />
<hkern u1="L" u2="J" k="-100" />
<hkern u1="L" u2="G" k="66" />
<hkern u1="L" u2="C" k="66" />
<hkern u1="L" u2="A" k="-59" />
<hkern u1="L" u2="&#x3f;" k="102" />
<hkern u1="L" u2="&#x2a;" k="207" />
<hkern u1="O" u2="&#x2026;" k="92" />
<hkern u1="O" u2="&#x201e;" k="104" />
<hkern u1="O" u2="&#x201a;" k="180" />
<hkern u1="O" u2="&#x178;" k="10" />
<hkern u1="O" u2="&#xdd;" k="25" />
<hkern u1="O" u2="&#xc5;" k="27" />
<hkern u1="O" u2="&#xc4;" k="27" />
<hkern u1="O" u2="&#xc3;" k="27" />
<hkern u1="O" u2="&#xc2;" k="27" />
<hkern u1="O" u2="&#xc1;" k="27" />
<hkern u1="O" u2="&#xc0;" k="27" />
<hkern u1="O" u2="Z" k="49" />
<hkern u1="O" u2="Y" k="25" />
<hkern u1="O" u2="X" k="37" />
<hkern u1="O" u2="T" k="92" />
<hkern u1="O" u2="J" k="10" />
<hkern u1="O" u2="A" k="27" />
<hkern u1="O" u2="&#x2e;" k="92" />
<hkern u1="O" u2="&#x2c;" k="92" />
<hkern u1="P" u2="&#x2026;" k="326" />
<hkern u1="P" u2="&#x201e;" k="338" />
<hkern u1="P" u2="&#x201a;" k="326" />
<hkern u1="P" u2="&#x153;" k="76" />
<hkern u1="P" u2="&#xf6;" k="76" />
<hkern u1="P" u2="&#xf5;" k="76" />
<hkern u1="P" u2="&#xf4;" k="76" />
<hkern u1="P" u2="&#xf3;" k="76" />
<hkern u1="P" u2="&#xf2;" k="76" />
<hkern u1="P" u2="&#xeb;" k="76" />
<hkern u1="P" u2="&#xea;" k="76" />
<hkern u1="P" u2="&#xe9;" k="76" />
<hkern u1="P" u2="&#xe8;" k="76" />
<hkern u1="P" u2="&#xe7;" k="76" />
<hkern u1="P" u2="&#xe6;" k="66" />
<hkern u1="P" u2="&#xe5;" k="66" />
<hkern u1="P" u2="&#xe4;" k="66" />
<hkern u1="P" u2="&#xe3;" k="66" />
<hkern u1="P" u2="&#xe2;" k="66" />
<hkern u1="P" u2="&#xe1;" k="66" />
<hkern u1="P" u2="&#xe0;" k="66" />
<hkern u1="P" u2="&#xc6;" k="279" />
<hkern u1="P" u2="&#xc5;" k="158" />
<hkern u1="P" u2="&#xc4;" k="158" />
<hkern u1="P" u2="&#xc3;" k="158" />
<hkern u1="P" u2="&#xc2;" k="158" />
<hkern u1="P" u2="&#xc1;" k="158" />
<hkern u1="P" u2="&#xc0;" k="158" />
<hkern u1="P" u2="q" k="74" />
<hkern u1="P" u2="o" k="76" />
<hkern u1="P" u2="g" k="76" />
<hkern u1="P" u2="e" k="76" />
<hkern u1="P" u2="d" k="76" />
<hkern u1="P" u2="c" k="76" />
<hkern u1="P" u2="a" k="66" />
<hkern u1="P" u2="X" k="61" />
<hkern u1="P" u2="W" k="-39" />
<hkern u1="P" u2="J" k="129" />
<hkern u1="P" u2="G" k="10" />
<hkern u1="P" u2="A" k="158" />
<hkern u1="P" u2="&#x2e;" k="326" />
<hkern u1="P" u2="&#x2c;" k="326" />
<hkern u1="Q" u2="&#x2026;" k="129" />
<hkern u1="Q" u2="&#x201e;" k="104" />
<hkern u1="Q" u2="&#x201a;" k="104" />
<hkern u1="Q" u2="&#x178;" k="10" />
<hkern u1="Q" u2="&#xdd;" k="10" />
<hkern u1="Q" u2="&#xc5;" k="27" />
<hkern u1="Q" u2="&#xc4;" k="27" />
<hkern u1="Q" u2="&#xc3;" k="27" />
<hkern u1="Q" u2="&#xc2;" k="27" />
<hkern u1="Q" u2="&#xc1;" k="27" />
<hkern u1="Q" u2="&#xc0;" k="27" />
<hkern u1="Q" u2="Z" k="49" />
<hkern u1="Q" u2="Y" k="10" />
<hkern u1="Q" u2="X" k="37" />
<hkern u1="Q" u2="T" k="92" />
<hkern u1="Q" u2="A" k="27" />
<hkern u1="Q" u2="&#x2e;" k="129" />
<hkern u1="Q" u2="&#x2c;" k="92" />
<hkern u1="R" u2="&#x178;" k="27" />
<hkern u1="R" u2="&#x153;" k="59" />
<hkern u1="R" u2="&#x152;" k="20" />
<hkern u1="R" u2="&#xf6;" k="59" />
<hkern u1="R" u2="&#xf5;" k="59" />
<hkern u1="R" u2="&#xf4;" k="59" />
<hkern u1="R" u2="&#xf3;" k="59" />
<hkern u1="R" u2="&#xf2;" k="59" />
<hkern u1="R" u2="&#xeb;" k="66" />
<hkern u1="R" u2="&#xea;" k="66" />
<hkern u1="R" u2="&#xe9;" k="66" />
<hkern u1="R" u2="&#xe8;" k="66" />
<hkern u1="R" u2="&#xe7;" k="66" />
<hkern u1="R" u2="&#xdd;" k="39" />
<hkern u1="R" u2="&#xd8;" k="20" />
<hkern u1="R" u2="&#xd6;" k="20" />
<hkern u1="R" u2="&#xd5;" k="20" />
<hkern u1="R" u2="&#xd4;" k="20" />
<hkern u1="R" u2="&#xd3;" k="20" />
<hkern u1="R" u2="&#xd2;" k="20" />
<hkern u1="R" u2="&#xc7;" k="27" />
<hkern u1="R" u2="q" k="53" />
<hkern u1="R" u2="o" k="59" />
<hkern u1="R" u2="g" k="57" />
<hkern u1="R" u2="e" k="57" />
<hkern u1="R" u2="d" k="53" />
<hkern u1="R" u2="c" k="53" />
<hkern u1="R" u2="Y" k="39" />
<hkern u1="R" u2="T" k="53" />
<hkern u1="R" u2="Q" k="20" />
<hkern u1="R" u2="O" k="20" />
<hkern u1="R" u2="J" k="-57" />
<hkern u1="R" u2="G" k="29" />
<hkern u1="R" u2="C" k="29" />
<hkern u1="R" u2="&#x3b;" k="-82" />
<hkern u1="S" u2="&#x201e;" k="78" />
<hkern u1="S" u2="&#x201a;" k="78" />
<hkern u1="S" u2="&#xff;" k="66" />
<hkern u1="S" u2="&#xfd;" k="47" />
<hkern u1="S" u2="y" k="47" />
<hkern u1="S" u2="w" k="27" />
<hkern u1="S" u2="v" k="49" />
<hkern u1="S" u2="t" k="66" />
<hkern u1="T" u2="&#x2122;" k="-82" />
<hkern u1="T" u2="&#x203a;" k="49" />
<hkern u1="T" u2="&#x2039;" k="102" />
<hkern u1="T" u2="&#x2026;" k="180" />
<hkern u1="T" u2="&#x201e;" k="233" />
<hkern u1="T" u2="&#x201d;" k="-39" />
<hkern u1="T" u2="&#x201a;" k="233" />
<hkern u1="T" u2="&#x2019;" k="-39" />
<hkern u1="T" u2="&#x153;" k="211" />
<hkern u1="T" u2="&#x152;" k="92" />
<hkern u1="T" u2="&#xff;" k="113" />
<hkern u1="T" u2="&#xfd;" k="113" />
<hkern u1="T" u2="&#xfc;" k="178" />
<hkern u1="T" u2="&#xfb;" k="178" />
<hkern u1="T" u2="&#xfa;" k="178" />
<hkern u1="T" u2="&#xf9;" k="178" />
<hkern u1="T" u2="&#xf6;" k="211" />
<hkern u1="T" u2="&#xf5;" k="211" />
<hkern u1="T" u2="&#xf4;" k="211" />
<hkern u1="T" u2="&#xf3;" k="211" />
<hkern u1="T" u2="&#xf2;" k="211" />
<hkern u1="T" u2="&#xf1;" k="178" />
<hkern u1="T" u2="&#xef;" k="-111" />
<hkern u1="T" u2="&#xee;" k="-49" />
<hkern u1="T" u2="&#xed;" k="23" />
<hkern u1="T" u2="&#xeb;" k="211" />
<hkern u1="T" u2="&#xea;" k="211" />
<hkern u1="T" u2="&#xe9;" k="211" />
<hkern u1="T" u2="&#xe8;" k="211" />
<hkern u1="T" u2="&#xe7;" k="229" />
<hkern u1="T" u2="&#xe6;" k="217" />
<hkern u1="T" u2="&#xe5;" k="217" />
<hkern u1="T" u2="&#xe4;" k="217" />
<hkern u1="T" u2="&#xe3;" k="193" />
<hkern u1="T" u2="&#xe2;" k="217" />
<hkern u1="T" u2="&#xe1;" k="217" />
<hkern u1="T" u2="&#xe0;" k="217" />
<hkern u1="T" u2="&#xdd;" k="-29" />
<hkern u1="T" u2="&#xd8;" k="92" />
<hkern u1="T" u2="&#xd6;" k="92" />
<hkern u1="T" u2="&#xd5;" k="92" />
<hkern u1="T" u2="&#xd4;" k="92" />
<hkern u1="T" u2="&#xd3;" k="92" />
<hkern u1="T" u2="&#xd2;" k="92" />
<hkern u1="T" u2="&#xc7;" k="92" />
<hkern u1="T" u2="&#xc6;" k="244" />
<hkern u1="T" u2="&#xc5;" k="154" />
<hkern u1="T" u2="&#xc4;" k="154" />
<hkern u1="T" u2="&#xc3;" k="154" />
<hkern u1="T" u2="&#xc2;" k="154" />
<hkern u1="T" u2="&#xc1;" k="154" />
<hkern u1="T" u2="&#xc0;" k="154" />
<hkern u1="T" u2="&#xbb;" k="49" />
<hkern u1="T" u2="&#xab;" k="102" />
<hkern u1="T" u2="z" k="129" />
<hkern u1="T" u2="y" k="113" />
<hkern u1="T" u2="x" k="180" />
<hkern u1="T" u2="w" k="113" />
<hkern u1="T" u2="v" k="102" />
<hkern u1="T" u2="u" k="178" />
<hkern u1="T" u2="s" k="154" />
<hkern u1="T" u2="r" k="178" />
<hkern u1="T" u2="q" k="211" />
<hkern u1="T" u2="p" k="178" />
<hkern u1="T" u2="o" k="211" />
<hkern u1="T" u2="n" k="178" />
<hkern u1="T" u2="m" k="178" />
<hkern u1="T" u2="g" k="211" />
<hkern u1="T" u2="f" k="96" />
<hkern u1="T" u2="e" k="211" />
<hkern u1="T" u2="d" k="211" />
<hkern u1="T" u2="c" k="211" />
<hkern u1="T" u2="a" k="217" />
<hkern u1="T" u2="Y" k="-29" />
<hkern u1="T" u2="X" k="6" />
<hkern u1="T" u2="W" k="-39" />
<hkern u1="T" u2="V" k="-43" />
<hkern u1="T" u2="T" k="-39" />
<hkern u1="T" u2="Q" k="92" />
<hkern u1="T" u2="O" k="92" />
<hkern u1="T" u2="J" k="113" />
<hkern u1="T" u2="G" k="92" />
<hkern u1="T" u2="C" k="92" />
<hkern u1="T" u2="A" k="154" />
<hkern u1="T" u2="&#x3b;" k="23" />
<hkern u1="T" u2="&#x3a;" k="23" />
<hkern u1="T" u2="&#x2e;" k="180" />
<hkern u1="T" u2="&#x2c;" k="129" />
<hkern u1="U" u2="&#x201e;" k="90" />
<hkern u1="U" u2="&#x201a;" k="90" />
<hkern u1="U" u2="&#xc6;" k="117" />
<hkern u1="U" u2="A" k="41" />
<hkern u1="V" u2="&#x2122;" k="-82" />
<hkern u1="V" u2="&#x2039;" k="49" />
<hkern u1="V" u2="&#x2026;" k="229" />
<hkern u1="V" u2="&#x201e;" k="129" />
<hkern u1="V" u2="&#x201a;" k="141" />
<hkern u1="V" u2="&#x153;" k="129" />
<hkern u1="V" u2="&#x152;" k="12" />
<hkern u1="V" u2="&#xfc;" k="76" />
<hkern u1="V" u2="&#xfb;" k="76" />
<hkern u1="V" u2="&#xfa;" k="76" />
<hkern u1="V" u2="&#xf9;" k="76" />
<hkern u1="V" u2="&#xf6;" k="129" />
<hkern u1="V" u2="&#xf5;" k="129" />
<hkern u1="V" u2="&#xf4;" k="129" />
<hkern u1="V" u2="&#xf3;" k="129" />
<hkern u1="V" u2="&#xf2;" k="129" />
<hkern u1="V" u2="&#xf1;" k="76" />
<hkern u1="V" u2="&#xef;" k="-90" />
<hkern u1="V" u2="&#xee;" k="-29" />
<hkern u1="V" u2="&#xeb;" k="129" />
<hkern u1="V" u2="&#xea;" k="129" />
<hkern u1="V" u2="&#xe9;" k="129" />
<hkern u1="V" u2="&#xe8;" k="129" />
<hkern u1="V" u2="&#xe7;" k="129" />
<hkern u1="V" u2="&#xe6;" k="147" />
<hkern u1="V" u2="&#xe5;" k="147" />
<hkern u1="V" u2="&#xe4;" k="147" />
<hkern u1="V" u2="&#xe3;" k="147" />
<hkern u1="V" u2="&#xe2;" k="147" />
<hkern u1="V" u2="&#xe1;" k="147" />
<hkern u1="V" u2="&#xe0;" k="147" />
<hkern u1="V" u2="&#xd8;" k="12" />
<hkern u1="V" u2="&#xd6;" k="12" />
<hkern u1="V" u2="&#xd5;" k="12" />
<hkern u1="V" u2="&#xd4;" k="12" />
<hkern u1="V" u2="&#xd3;" k="12" />
<hkern u1="V" u2="&#xd2;" k="12" />
<hkern u1="V" u2="&#xc7;" k="31" />
<hkern u1="V" u2="&#xc6;" k="188" />
<hkern u1="V" u2="&#xc5;" k="117" />
<hkern u1="V" u2="&#xc4;" k="117" />
<hkern u1="V" u2="&#xc3;" k="117" />
<hkern u1="V" u2="&#xc2;" k="117" />
<hkern u1="V" u2="&#xc1;" k="117" />
<hkern u1="V" u2="&#xc0;" k="117" />
<hkern u1="V" u2="&#xbf;" k="139" />
<hkern u1="V" u2="&#xab;" k="49" />
<hkern u1="V" u2="u" k="76" />
<hkern u1="V" u2="s" k="66" />
<hkern u1="V" u2="r" k="76" />
<hkern u1="V" u2="q" k="129" />
<hkern u1="V" u2="p" k="76" />
<hkern u1="V" u2="o" k="129" />
<hkern u1="V" u2="n" k="76" />
<hkern u1="V" u2="m" k="76" />
<hkern u1="V" u2="g" k="129" />
<hkern u1="V" u2="e" k="129" />
<hkern u1="V" u2="d" k="129" />
<hkern u1="V" u2="c" k="129" />
<hkern u1="V" u2="a" k="147" />
<hkern u1="V" u2="T" k="-39" />
<hkern u1="V" u2="S" k="27" />
<hkern u1="V" u2="Q" k="43" />
<hkern u1="V" u2="O" k="12" />
<hkern u1="V" u2="J" k="70" />
<hkern u1="V" u2="G" k="43" />
<hkern u1="V" u2="C" k="43" />
<hkern u1="V" u2="A" k="117" />
<hkern u1="V" u2="&#x2e;" k="229" />
<hkern u1="V" u2="&#x2c;" k="205" />
<hkern u1="W" u2="&#x203a;" k="-39" />
<hkern u1="W" u2="&#x2039;" k="49" />
<hkern u1="W" u2="&#x2026;" k="129" />
<hkern u1="W" u2="&#x201e;" k="117" />
<hkern u1="W" u2="&#x201a;" k="129" />
<hkern u1="W" u2="&#x153;" k="49" />
<hkern u1="W" u2="&#xf6;" k="49" />
<hkern u1="W" u2="&#xf5;" k="49" />
<hkern u1="W" u2="&#xf4;" k="49" />
<hkern u1="W" u2="&#xf3;" k="49" />
<hkern u1="W" u2="&#xf2;" k="49" />
<hkern u1="W" u2="&#xef;" k="-100" />
<hkern u1="W" u2="&#xee;" k="-49" />
<hkern u1="W" u2="&#xeb;" k="49" />
<hkern u1="W" u2="&#xea;" k="49" />
<hkern u1="W" u2="&#xe9;" k="49" />
<hkern u1="W" u2="&#xe8;" k="49" />
<hkern u1="W" u2="&#xe7;" k="49" />
<hkern u1="W" u2="&#xe6;" k="76" />
<hkern u1="W" u2="&#xe5;" k="76" />
<hkern u1="W" u2="&#xe4;" k="76" />
<hkern u1="W" u2="&#xe3;" k="76" />
<hkern u1="W" u2="&#xe2;" k="76" />
<hkern u1="W" u2="&#xe1;" k="76" />
<hkern u1="W" u2="&#xe0;" k="76" />
<hkern u1="W" u2="&#xc6;" k="102" />
<hkern u1="W" u2="&#xc5;" k="74" />
<hkern u1="W" u2="&#xc4;" k="74" />
<hkern u1="W" u2="&#xc3;" k="74" />
<hkern u1="W" u2="&#xc2;" k="74" />
<hkern u1="W" u2="&#xc1;" k="74" />
<hkern u1="W" u2="&#xc0;" k="74" />
<hkern u1="W" u2="&#xbf;" k="92" />
<hkern u1="W" u2="&#xbb;" k="-39" />
<hkern u1="W" u2="&#xab;" k="49" />
<hkern u1="W" u2="q" k="49" />
<hkern u1="W" u2="o" k="49" />
<hkern u1="W" u2="g" k="49" />
<hkern u1="W" u2="e" k="49" />
<hkern u1="W" u2="d" k="49" />
<hkern u1="W" u2="c" k="49" />
<hkern u1="W" u2="a" k="76" />
<hkern u1="W" u2="T" k="-39" />
<hkern u1="W" u2="A" k="74" />
<hkern u1="W" u2="&#x2e;" k="129" />
<hkern u1="W" u2="&#x2c;" k="117" />
<hkern u1="X" u2="&#x2026;" k="-57" />
<hkern u1="X" u2="&#x201e;" k="-82" />
<hkern u1="X" u2="&#x201a;" k="-68" />
<hkern u1="X" u2="&#x152;" k="23" />
<hkern u1="X" u2="&#xef;" k="-82" />
<hkern u1="X" u2="&#xd8;" k="23" />
<hkern u1="X" u2="&#xd6;" k="23" />
<hkern u1="X" u2="&#xd5;" k="23" />
<hkern u1="X" u2="&#xd4;" k="23" />
<hkern u1="X" u2="&#xd3;" k="23" />
<hkern u1="X" u2="&#xd2;" k="23" />
<hkern u1="X" u2="&#xc7;" k="23" />
<hkern u1="X" u2="T" k="-33" />
<hkern u1="X" u2="Q" k="23" />
<hkern u1="X" u2="O" k="23" />
<hkern u1="X" u2="J" k="-96" />
<hkern u1="X" u2="G" k="23" />
<hkern u1="X" u2="C" k="23" />
<hkern u1="X" u2="&#x3b;" k="-82" />
<hkern u1="X" u2="&#x2e;" k="-57" />
<hkern u1="X" u2="&#x2c;" k="-68" />
<hkern u1="Y" u2="&#x2039;" k="102" />
<hkern u1="Y" u2="&#x2026;" k="195" />
<hkern u1="Y" u2="&#x201e;" k="248" />
<hkern u1="Y" u2="&#x201a;" k="248" />
<hkern u1="Y" u2="&#x153;" k="180" />
<hkern u1="Y" u2="&#x152;" k="45" />
<hkern u1="Y" u2="&#xfc;" k="141" />
<hkern u1="Y" u2="&#xfb;" k="141" />
<hkern u1="Y" u2="&#xfa;" k="141" />
<hkern u1="Y" u2="&#xf9;" k="141" />
<hkern u1="Y" u2="&#xf6;" k="180" />
<hkern u1="Y" u2="&#xf5;" k="180" />
<hkern u1="Y" u2="&#xf4;" k="180" />
<hkern u1="Y" u2="&#xf3;" k="180" />
<hkern u1="Y" u2="&#xf2;" k="180" />
<hkern u1="Y" u2="&#xf1;" k="141" />
<hkern u1="Y" u2="&#xef;" k="-90" />
<hkern u1="Y" u2="&#xeb;" k="180" />
<hkern u1="Y" u2="&#xea;" k="180" />
<hkern u1="Y" u2="&#xe9;" k="180" />
<hkern u1="Y" u2="&#xe8;" k="180" />
<hkern u1="Y" u2="&#xe7;" k="180" />
<hkern u1="Y" u2="&#xe6;" k="199" />
<hkern u1="Y" u2="&#xe5;" k="199" />
<hkern u1="Y" u2="&#xe4;" k="129" />
<hkern u1="Y" u2="&#xe3;" k="154" />
<hkern u1="Y" u2="&#xe2;" k="199" />
<hkern u1="Y" u2="&#xe1;" k="199" />
<hkern u1="Y" u2="&#xe0;" k="199" />
<hkern u1="Y" u2="&#xd8;" k="45" />
<hkern u1="Y" u2="&#xd6;" k="45" />
<hkern u1="Y" u2="&#xd5;" k="45" />
<hkern u1="Y" u2="&#xd4;" k="45" />
<hkern u1="Y" u2="&#xd3;" k="45" />
<hkern u1="Y" u2="&#xd2;" k="45" />
<hkern u1="Y" u2="&#xc7;" k="51" />
<hkern u1="Y" u2="&#xc6;" k="193" />
<hkern u1="Y" u2="&#xc5;" k="158" />
<hkern u1="Y" u2="&#xc4;" k="158" />
<hkern u1="Y" u2="&#xc3;" k="158" />
<hkern u1="Y" u2="&#xc2;" k="158" />
<hkern u1="Y" u2="&#xc1;" k="158" />
<hkern u1="Y" u2="&#xc0;" k="158" />
<hkern u1="Y" u2="&#xbf;" k="229" />
<hkern u1="Y" u2="&#xab;" k="49" />
<hkern u1="Y" u2="u" k="141" />
<hkern u1="Y" u2="s" k="133" />
<hkern u1="Y" u2="r" k="141" />
<hkern u1="Y" u2="q" k="180" />
<hkern u1="Y" u2="p" k="141" />
<hkern u1="Y" u2="o" k="180" />
<hkern u1="Y" u2="n" k="141" />
<hkern u1="Y" u2="m" k="141" />
<hkern u1="Y" u2="g" k="180" />
<hkern u1="Y" u2="f" k="27" />
<hkern u1="Y" u2="e" k="180" />
<hkern u1="Y" u2="d" k="180" />
<hkern u1="Y" u2="c" k="180" />
<hkern u1="Y" u2="a" k="199" />
<hkern u1="Y" u2="T" k="-39" />
<hkern u1="Y" u2="S" k="27" />
<hkern u1="Y" u2="Q" k="45" />
<hkern u1="Y" u2="O" k="45" />
<hkern u1="Y" u2="J" k="66" />
<hkern u1="Y" u2="G" k="45" />
<hkern u1="Y" u2="C" k="45" />
<hkern u1="Y" u2="A" k="158" />
<hkern u1="Y" u2="&#x2e;" k="195" />
<hkern u1="Y" u2="&#x2c;" k="176" />
<hkern u1="Z" u2="&#x203a;" k="-82" />
<hkern u1="Z" u2="&#xff;" k="66" />
<hkern u1="Z" u2="&#xfd;" k="53" />
<hkern u1="Z" u2="&#xef;" k="-70" />
<hkern u1="Z" u2="&#xbb;" k="-39" />
<hkern u1="Z" u2="y" k="53" />
<hkern u1="Z" u2="T" k="-39" />
<hkern u1="Z" u2="J" k="-82" />
<hkern u1="[" u2="j" k="-233" />
<hkern u1="b" u2="&#xfb02;" k="10" />
<hkern u1="b" u2="&#xfb01;" k="10" />
<hkern u1="b" u2="&#xe6;" k="27" />
<hkern u1="b" u2="&#xe5;" k="27" />
<hkern u1="b" u2="&#xe4;" k="27" />
<hkern u1="b" u2="&#xe3;" k="27" />
<hkern u1="b" u2="&#xe2;" k="27" />
<hkern u1="b" u2="&#xe1;" k="27" />
<hkern u1="b" u2="&#xe0;" k="27" />
<hkern u1="b" u2="x" k="25" />
<hkern u1="b" u2="f" k="10" />
<hkern u1="b" u2="a" k="27" />
<hkern u1="c" u2="&#xdd;" k="76" />
<hkern u1="c" u2="Y" k="76" />
<hkern u1="c" u2="T" k="102" />
<hkern u1="c" u2="J" k="-70" />
<hkern u1="e" u2="&#x27;" k="104" />
<hkern u1="e" u2="&#x22;" k="104" />
<hkern u1="f" u2="&#x2122;" k="-147" />
<hkern u1="f" u2="&#x203a;" k="-39" />
<hkern u1="f" u2="&#x2026;" k="129" />
<hkern u1="f" u2="&#x201e;" k="80" />
<hkern u1="f" u2="&#x201d;" k="-82" />
<hkern u1="f" u2="&#x201c;" k="-94" />
<hkern u1="f" u2="&#x201a;" k="80" />
<hkern u1="f" u2="&#x2019;" k="-82" />
<hkern u1="f" u2="&#x2018;" k="-94" />
<hkern u1="f" u2="&#xfe;" k="-18" />
<hkern u1="f" u2="&#xfd;" k="-33" />
<hkern u1="f" u2="&#xef;" k="-121" />
<hkern u1="f" u2="&#xee;" k="-18" />
<hkern u1="f" u2="&#xec;" k="-45" />
<hkern u1="f" u2="&#xbb;" k="-39" />
<hkern u1="f" u2="&#x7d;" k="-82" />
<hkern u1="f" u2="y" k="-33" />
<hkern u1="f" u2="x" k="-18" />
<hkern u1="f" u2="w" k="-39" />
<hkern u1="f" u2="v" k="-39" />
<hkern u1="f" u2="t" k="-37" />
<hkern u1="f" u2="h" k="-18" />
<hkern u1="f" u2="b" k="-18" />
<hkern u1="f" u2="]" k="-141" />
<hkern u1="f" u2="&#x3f;" k="-66" />
<hkern u1="f" u2="&#x3b;" k="-82" />
<hkern u1="f" u2="&#x3a;" k="-82" />
<hkern u1="f" u2="&#x2e;" k="129" />
<hkern u1="f" u2="&#x2d;" k="102" />
<hkern u1="f" u2="&#x2c;" k="129" />
<hkern u1="f" u2="&#x29;" k="-141" />
<hkern u1="g" u2="j" k="-47" />
<hkern u1="j" u2="j" k="-35" />
<hkern u1="k" u2="&#x2026;" k="-82" />
<hkern u1="k" u2="&#x153;" k="41" />
<hkern u1="k" u2="&#xf6;" k="41" />
<hkern u1="k" u2="&#xf5;" k="41" />
<hkern u1="k" u2="&#xf4;" k="41" />
<hkern u1="k" u2="&#xf3;" k="41" />
<hkern u1="k" u2="&#xf2;" k="41" />
<hkern u1="k" u2="&#xeb;" k="41" />
<hkern u1="k" u2="&#xea;" k="41" />
<hkern u1="k" u2="&#xe9;" k="41" />
<hkern u1="k" u2="&#xe8;" k="41" />
<hkern u1="k" u2="&#xe7;" k="27" />
<hkern u1="k" u2="t" k="16" />
<hkern u1="k" u2="q" k="27" />
<hkern u1="k" u2="o" k="41" />
<hkern u1="k" u2="g" k="41" />
<hkern u1="k" u2="e" k="41" />
<hkern u1="k" u2="d" k="27" />
<hkern u1="k" u2="c" k="41" />
<hkern u1="k" u2="&#x3b;" k="-82" />
<hkern u1="k" u2="&#x3a;" k="-82" />
<hkern u1="k" u2="&#x2e;" k="-82" />
<hkern u1="k" u2="&#x2d;" k="139" />
<hkern u1="k" u2="&#x2c;" k="-82" />
<hkern u1="n" u2="&#x27;" k="104" />
<hkern u1="n" u2="&#x22;" k="104" />
<hkern u1="o" u2="&#xfb02;" k="25" />
<hkern u1="o" u2="&#xfb01;" k="25" />
<hkern u1="o" u2="&#x201d;" k="131" />
<hkern u1="o" u2="&#x201c;" k="78" />
<hkern u1="o" u2="&#x2019;" k="131" />
<hkern u1="o" u2="&#x2018;" k="66" />
<hkern u1="o" u2="&#xe6;" k="27" />
<hkern u1="o" u2="&#xe5;" k="27" />
<hkern u1="o" u2="&#xe4;" k="27" />
<hkern u1="o" u2="&#xe3;" k="27" />
<hkern u1="o" u2="&#xe2;" k="27" />
<hkern u1="o" u2="&#xe1;" k="27" />
<hkern u1="o" u2="&#xe0;" k="27" />
<hkern u1="o" u2="x" k="25" />
<hkern u1="o" u2="f" k="37" />
<hkern u1="o" u2="a" k="27" />
<hkern u1="o" u2="&#x27;" k="145" />
<hkern u1="o" u2="&#x22;" k="145" />
<hkern u1="p" u2="&#xfb02;" k="25" />
<hkern u1="p" u2="&#xfb01;" k="25" />
<hkern u1="p" u2="&#x201d;" k="119" />
<hkern u1="p" u2="&#x201c;" k="53" />
<hkern u1="p" u2="&#x2019;" k="119" />
<hkern u1="p" u2="&#x2018;" k="119" />
<hkern u1="p" u2="&#xe6;" k="27" />
<hkern u1="p" u2="&#xe5;" k="27" />
<hkern u1="p" u2="&#xe4;" k="27" />
<hkern u1="p" u2="&#xe3;" k="27" />
<hkern u1="p" u2="&#xe2;" k="27" />
<hkern u1="p" u2="&#xe1;" k="27" />
<hkern u1="p" u2="&#xe0;" k="27" />
<hkern u1="p" u2="x" k="25" />
<hkern u1="p" u2="f" k="37" />
<hkern u1="p" u2="a" k="27" />
<hkern u1="q" u2="j" k="-102" />
<hkern u1="r" u2="&#x2026;" k="170" />
<hkern u1="r" u2="&#x201e;" k="158" />
<hkern u1="r" u2="&#x201d;" k="-121" />
<hkern u1="r" u2="&#x201c;" k="-164" />
<hkern u1="r" u2="&#x201a;" k="158" />
<hkern u1="r" u2="&#x2019;" k="-121" />
<hkern u1="r" u2="&#x2018;" k="-164" />
<hkern u1="r" u2="&#x153;" k="27" />
<hkern u1="r" u2="&#xfd;" k="-82" />
<hkern u1="r" u2="&#xf6;" k="27" />
<hkern u1="r" u2="&#xf5;" k="27" />
<hkern u1="r" u2="&#xf4;" k="27" />
<hkern u1="r" u2="&#xf3;" k="27" />
<hkern u1="r" u2="&#xf2;" k="27" />
<hkern u1="r" u2="&#xeb;" k="27" />
<hkern u1="r" u2="&#xea;" k="27" />
<hkern u1="r" u2="&#xe9;" k="27" />
<hkern u1="r" u2="&#xe8;" k="27" />
<hkern u1="r" u2="&#xe7;" k="27" />
<hkern u1="r" u2="z" k="-39" />
<hkern u1="r" u2="y" k="-82" />
<hkern u1="r" u2="x" k="-59" />
<hkern u1="r" u2="w" k="-82" />
<hkern u1="r" u2="v" k="-82" />
<hkern u1="r" u2="t" k="-59" />
<hkern u1="r" u2="s" k="-14" />
<hkern u1="r" u2="q" k="27" />
<hkern u1="r" u2="o" k="27" />
<hkern u1="r" u2="n" k="4" />
<hkern u1="r" u2="m" k="4" />
<hkern u1="r" u2="g" k="27" />
<hkern u1="r" u2="f" k="-39" />
<hkern u1="r" u2="e" k="27" />
<hkern u1="r" u2="d" k="27" />
<hkern u1="r" u2="c" k="27" />
<hkern u1="r" u2="&#x3b;" k="-82" />
<hkern u1="r" u2="&#x3a;" k="-82" />
<hkern u1="r" u2="&#x2e;" k="170" />
<hkern u1="r" u2="&#x2d;" k="129" />
<hkern u1="r" u2="&#x2c;" k="158" />
<hkern u1="t" u2="&#x203a;" k="-39" />
<hkern u1="t" u2="&#x153;" k="16" />
<hkern u1="t" u2="&#xf6;" k="16" />
<hkern u1="t" u2="&#xf5;" k="16" />
<hkern u1="t" u2="&#xf4;" k="16" />
<hkern u1="t" u2="&#xf3;" k="16" />
<hkern u1="t" u2="&#xf2;" k="16" />
<hkern u1="t" u2="&#xeb;" k="16" />
<hkern u1="t" u2="&#xea;" k="16" />
<hkern u1="t" u2="&#xe9;" k="16" />
<hkern u1="t" u2="&#xe8;" k="16" />
<hkern u1="t" u2="&#xe7;" k="27" />
<hkern u1="t" u2="&#xbb;" k="-39" />
<hkern u1="t" u2="x" k="-29" />
<hkern u1="t" u2="q" k="16" />
<hkern u1="t" u2="o" k="16" />
<hkern u1="t" u2="g" k="16" />
<hkern u1="t" u2="e" k="16" />
<hkern u1="t" u2="d" k="27" />
<hkern u1="t" u2="c" k="27" />
<hkern u1="t" u2="&#x3f;" k="53" />
<hkern u1="t" u2="&#x2d;" k="113" />
<hkern u1="u" u2="&#x27;" k="66" />
<hkern u1="u" u2="&#x22;" k="66" />
<hkern u1="v" u2="&#x2026;" k="129" />
<hkern u1="v" u2="&#x201e;" k="129" />
<hkern u1="v" u2="&#x201a;" k="117" />
<hkern u1="v" u2="&#x153;" k="12" />
<hkern u1="v" u2="&#xf6;" k="12" />
<hkern u1="v" u2="&#xf5;" k="12" />
<hkern u1="v" u2="&#xf4;" k="12" />
<hkern u1="v" u2="&#xf3;" k="12" />
<hkern u1="v" u2="&#xf2;" k="12" />
<hkern u1="v" u2="&#xeb;" k="12" />
<hkern u1="v" u2="&#xea;" k="12" />
<hkern u1="v" u2="&#xe9;" k="12" />
<hkern u1="v" u2="&#xe8;" k="12" />
<hkern u1="v" u2="&#xe7;" k="12" />
<hkern u1="v" u2="&#xe6;" k="37" />
<hkern u1="v" u2="&#xe5;" k="37" />
<hkern u1="v" u2="&#xe4;" k="37" />
<hkern u1="v" u2="&#xe3;" k="37" />
<hkern u1="v" u2="&#xe2;" k="37" />
<hkern u1="v" u2="&#xe1;" k="37" />
<hkern u1="v" u2="&#xe0;" k="37" />
<hkern u1="v" u2="q" k="16" />
<hkern u1="v" u2="o" k="12" />
<hkern u1="v" u2="g" k="12" />
<hkern u1="v" u2="e" k="12" />
<hkern u1="v" u2="d" k="16" />
<hkern u1="v" u2="c" k="12" />
<hkern u1="v" u2="a" k="37" />
<hkern u1="v" u2="&#x2e;" k="129" />
<hkern u1="v" u2="&#x2c;" k="117" />
<hkern u1="w" u2="&#x2026;" k="102" />
<hkern u1="w" u2="&#x201e;" k="76" />
<hkern u1="w" u2="&#x201a;" k="76" />
<hkern u1="w" u2="&#x153;" k="6" />
<hkern u1="w" u2="&#xf6;" k="6" />
<hkern u1="w" u2="&#xf5;" k="6" />
<hkern u1="w" u2="&#xf4;" k="6" />
<hkern u1="w" u2="&#xf3;" k="6" />
<hkern u1="w" u2="&#xf2;" k="6" />
<hkern u1="w" u2="&#xeb;" k="10" />
<hkern u1="w" u2="&#xea;" k="10" />
<hkern u1="w" u2="&#xe9;" k="10" />
<hkern u1="w" u2="&#xe8;" k="10" />
<hkern u1="w" u2="&#xe7;" k="6" />
<hkern u1="w" u2="q" k="10" />
<hkern u1="w" u2="o" k="6" />
<hkern u1="w" u2="g" k="6" />
<hkern u1="w" u2="e" k="10" />
<hkern u1="w" u2="d" k="10" />
<hkern u1="w" u2="c" k="6" />
<hkern u1="w" u2="&#x2e;" k="102" />
<hkern u1="w" u2="&#x2c;" k="90" />
<hkern u1="x" u2="&#x153;" k="16" />
<hkern u1="x" u2="&#xf6;" k="16" />
<hkern u1="x" u2="&#xf5;" k="16" />
<hkern u1="x" u2="&#xf4;" k="16" />
<hkern u1="x" u2="&#xf3;" k="16" />
<hkern u1="x" u2="&#xf2;" k="16" />
<hkern u1="x" u2="&#xeb;" k="16" />
<hkern u1="x" u2="&#xea;" k="16" />
<hkern u1="x" u2="&#xe9;" k="16" />
<hkern u1="x" u2="&#xe8;" k="16" />
<hkern u1="x" u2="&#xe7;" k="16" />
<hkern u1="x" u2="q" k="16" />
<hkern u1="x" u2="o" k="16" />
<hkern u1="x" u2="g" k="16" />
<hkern u1="x" u2="e" k="16" />
<hkern u1="x" u2="d" k="16" />
<hkern u1="x" u2="c" k="16" />
<hkern u1="y" u2="&#x203a;" k="-12" />
<hkern u1="y" u2="&#x2026;" k="127" />
<hkern u1="y" u2="&#x201e;" k="115" />
<hkern u1="y" u2="&#x201a;" k="115" />
<hkern u1="y" u2="&#x153;" k="10" />
<hkern u1="y" u2="&#xf6;" k="10" />
<hkern u1="y" u2="&#xf5;" k="10" />
<hkern u1="y" u2="&#xf4;" k="10" />
<hkern u1="y" u2="&#xf3;" k="10" />
<hkern u1="y" u2="&#xf2;" k="10" />
<hkern u1="y" u2="&#xeb;" k="10" />
<hkern u1="y" u2="&#xea;" k="10" />
<hkern u1="y" u2="&#xe9;" k="10" />
<hkern u1="y" u2="&#xe8;" k="10" />
<hkern u1="y" u2="&#xe7;" k="10" />
<hkern u1="y" u2="t" k="-6" />
<hkern u1="y" u2="q" k="10" />
<hkern u1="y" u2="o" k="10" />
<hkern u1="y" u2="g" k="10" />
<hkern u1="y" u2="f" k="-4" />
<hkern u1="y" u2="e" k="10" />
<hkern u1="y" u2="d" k="10" />
<hkern u1="y" u2="c" k="10" />
<hkern u1="y" u2="&#x3f;" k="76" />
<hkern u1="y" u2="&#x2e;" k="127" />
<hkern u1="y" u2="&#x2c;" k="102" />
<hkern u1="y" u2="&#x27;" k="-29" />
<hkern u1="y" u2="&#x22;" k="-29" />
<hkern u1="&#x7b;" u2="j" k="-203" />
<hkern u1="&#xa1;" u2="j" k="-160" />
<hkern u1="&#xab;" u2="&#xfd;" k="-12" />
<hkern u1="&#xab;" u2="y" k="-12" />
<hkern u1="&#xab;" u2="Z" k="-82" />
<hkern u1="&#xab;" u2="W" k="-82" />
<hkern u1="&#xab;" u2="T" k="49" />
<hkern u1="&#xab;" u2="J" k="-82" />
<hkern u1="&#xbb;" u2="&#xdd;" k="102" />
<hkern u1="&#xbb;" u2="Y" k="102" />
<hkern u1="&#xbb;" u2="W" k="49" />
<hkern u1="&#xbb;" u2="V" k="49" />
<hkern u1="&#xbb;" u2="T" k="49" />
<hkern u1="&#xbf;" u2="&#xdd;" k="102" />
<hkern u1="&#xbf;" u2="j" k="-188" />
<hkern u1="&#xbf;" u2="Y" k="102" />
<hkern u1="&#xc0;" u2="&#xdd;" k="156" />
<hkern u1="&#xc0;" u2="Y" k="156" />
<hkern u1="&#xc0;" u2="W" k="74" />
<hkern u1="&#xc0;" u2="V" k="117" />
<hkern u1="&#xc0;" u2="T" k="147" />
<hkern u1="&#xc0;" u2="J" k="-94" />
<hkern u1="&#xc1;" u2="&#xdd;" k="156" />
<hkern u1="&#xc1;" u2="Y" k="156" />
<hkern u1="&#xc1;" u2="W" k="74" />
<hkern u1="&#xc1;" u2="V" k="117" />
<hkern u1="&#xc1;" u2="T" k="147" />
<hkern u1="&#xc1;" u2="J" k="-94" />
<hkern u1="&#xc2;" u2="&#xdd;" k="156" />
<hkern u1="&#xc2;" u2="Y" k="156" />
<hkern u1="&#xc2;" u2="W" k="74" />
<hkern u1="&#xc2;" u2="V" k="117" />
<hkern u1="&#xc2;" u2="T" k="147" />
<hkern u1="&#xc2;" u2="J" k="-94" />
<hkern u1="&#xc3;" u2="&#xdd;" k="156" />
<hkern u1="&#xc3;" u2="Y" k="156" />
<hkern u1="&#xc3;" u2="W" k="74" />
<hkern u1="&#xc3;" u2="V" k="117" />
<hkern u1="&#xc3;" u2="T" k="147" />
<hkern u1="&#xc3;" u2="J" k="-94" />
<hkern u1="&#xc4;" u2="&#xdd;" k="156" />
<hkern u1="&#xc4;" u2="Y" k="156" />
<hkern u1="&#xc4;" u2="W" k="80" />
<hkern u1="&#xc4;" u2="V" k="117" />
<hkern u1="&#xc4;" u2="T" k="147" />
<hkern u1="&#xc4;" u2="J" k="-94" />
<hkern u1="&#xc5;" u2="&#xdd;" k="156" />
<hkern u1="&#xc5;" u2="Y" k="156" />
<hkern u1="&#xc5;" u2="W" k="74" />
<hkern u1="&#xc5;" u2="V" k="117" />
<hkern u1="&#xc5;" u2="T" k="147" />
<hkern u1="&#xc5;" u2="J" k="-94" />
<hkern u1="&#xc6;" u2="J" k="-14" />
<hkern u1="&#xc7;" u2="Q" k="55" />
<hkern u1="&#xc7;" u2="O" k="55" />
<hkern u1="&#xc7;" u2="G" k="55" />
<hkern u1="&#xc7;" u2="C" k="55" />
<hkern u1="&#xc8;" u2="J" k="-61" />
<hkern u1="&#xc9;" u2="J" k="-61" />
<hkern u1="&#xca;" u2="J" k="-61" />
<hkern u1="&#xcb;" u2="J" k="-61" />
<hkern u1="&#xd0;" u2="&#x2026;" k="129" />
<hkern u1="&#xd0;" u2="&#x201e;" k="117" />
<hkern u1="&#xd0;" u2="&#x201a;" k="117" />
<hkern u1="&#xd0;" u2="&#x178;" k="10" />
<hkern u1="&#xd0;" u2="&#xc6;" k="74" />
<hkern u1="&#xd0;" u2="&#xc5;" k="33" />
<hkern u1="&#xd0;" u2="&#xc4;" k="33" />
<hkern u1="&#xd0;" u2="&#xc3;" k="33" />
<hkern u1="&#xd0;" u2="&#xc2;" k="33" />
<hkern u1="&#xd0;" u2="&#xc1;" k="33" />
<hkern u1="&#xd0;" u2="&#xc0;" k="33" />
<hkern u1="&#xd0;" u2="Z" k="49" />
<hkern u1="&#xd0;" u2="X" k="53" />
<hkern u1="&#xd0;" u2="T" k="92" />
<hkern u1="&#xd0;" u2="A" k="33" />
<hkern u1="&#xd0;" u2="&#x2e;" k="129" />
<hkern u1="&#xd0;" u2="&#x2c;" k="129" />
<hkern u1="&#xd2;" u2="Z" k="49" />
<hkern u1="&#xd2;" u2="X" k="37" />
<hkern u1="&#xd2;" u2="T" k="92" />
<hkern u1="&#xd2;" u2="A" k="27" />
<hkern u1="&#xd3;" u2="Z" k="49" />
<hkern u1="&#xd3;" u2="X" k="37" />
<hkern u1="&#xd3;" u2="T" k="92" />
<hkern u1="&#xd3;" u2="A" k="27" />
<hkern u1="&#xd4;" u2="Z" k="49" />
<hkern u1="&#xd4;" u2="X" k="37" />
<hkern u1="&#xd4;" u2="T" k="92" />
<hkern u1="&#xd4;" u2="A" k="27" />
<hkern u1="&#xd5;" u2="Z" k="49" />
<hkern u1="&#xd5;" u2="X" k="37" />
<hkern u1="&#xd5;" u2="T" k="92" />
<hkern u1="&#xd5;" u2="A" k="27" />
<hkern u1="&#xd6;" u2="Z" k="49" />
<hkern u1="&#xd6;" u2="X" k="37" />
<hkern u1="&#xd6;" u2="T" k="92" />
<hkern u1="&#xd6;" u2="A" k="27" />
<hkern u1="&#xd8;" u2="Z" k="49" />
<hkern u1="&#xd8;" u2="X" k="37" />
<hkern u1="&#xd8;" u2="T" k="92" />
<hkern u1="&#xd8;" u2="A" k="27" />
<hkern u1="&#xdd;" u2="&#x2039;" k="102" />
<hkern u1="&#xdd;" u2="&#x2026;" k="195" />
<hkern u1="&#xdd;" u2="&#x201e;" k="248" />
<hkern u1="&#xdd;" u2="&#x201a;" k="248" />
<hkern u1="&#xdd;" u2="&#x153;" k="180" />
<hkern u1="&#xdd;" u2="&#x152;" k="45" />
<hkern u1="&#xdd;" u2="&#xfc;" k="141" />
<hkern u1="&#xdd;" u2="&#xfb;" k="141" />
<hkern u1="&#xdd;" u2="&#xfa;" k="141" />
<hkern u1="&#xdd;" u2="&#xf9;" k="141" />
<hkern u1="&#xdd;" u2="&#xf6;" k="180" />
<hkern u1="&#xdd;" u2="&#xf5;" k="180" />
<hkern u1="&#xdd;" u2="&#xf4;" k="180" />
<hkern u1="&#xdd;" u2="&#xf3;" k="180" />
<hkern u1="&#xdd;" u2="&#xf2;" k="180" />
<hkern u1="&#xdd;" u2="&#xf1;" k="141" />
<hkern u1="&#xdd;" u2="&#xef;" k="-90" />
<hkern u1="&#xdd;" u2="&#xeb;" k="180" />
<hkern u1="&#xdd;" u2="&#xea;" k="180" />
<hkern u1="&#xdd;" u2="&#xe9;" k="180" />
<hkern u1="&#xdd;" u2="&#xe8;" k="180" />
<hkern u1="&#xdd;" u2="&#xe7;" k="180" />
<hkern u1="&#xdd;" u2="&#xe6;" k="199" />
<hkern u1="&#xdd;" u2="&#xe5;" k="199" />
<hkern u1="&#xdd;" u2="&#xe4;" k="129" />
<hkern u1="&#xdd;" u2="&#xe3;" k="154" />
<hkern u1="&#xdd;" u2="&#xe2;" k="199" />
<hkern u1="&#xdd;" u2="&#xe1;" k="199" />
<hkern u1="&#xdd;" u2="&#xe0;" k="199" />
<hkern u1="&#xdd;" u2="&#xd8;" k="45" />
<hkern u1="&#xdd;" u2="&#xd6;" k="45" />
<hkern u1="&#xdd;" u2="&#xd5;" k="45" />
<hkern u1="&#xdd;" u2="&#xd4;" k="45" />
<hkern u1="&#xdd;" u2="&#xd3;" k="45" />
<hkern u1="&#xdd;" u2="&#xd2;" k="45" />
<hkern u1="&#xdd;" u2="&#xc7;" k="51" />
<hkern u1="&#xdd;" u2="&#xc6;" k="193" />
<hkern u1="&#xdd;" u2="&#xc5;" k="158" />
<hkern u1="&#xdd;" u2="&#xc4;" k="158" />
<hkern u1="&#xdd;" u2="&#xc3;" k="158" />
<hkern u1="&#xdd;" u2="&#xc2;" k="158" />
<hkern u1="&#xdd;" u2="&#xc1;" k="158" />
<hkern u1="&#xdd;" u2="&#xc0;" k="158" />
<hkern u1="&#xdd;" u2="&#xbf;" k="229" />
<hkern u1="&#xdd;" u2="&#xab;" k="49" />
<hkern u1="&#xdd;" u2="u" k="141" />
<hkern u1="&#xdd;" u2="s" k="133" />
<hkern u1="&#xdd;" u2="r" k="141" />
<hkern u1="&#xdd;" u2="q" k="180" />
<hkern u1="&#xdd;" u2="p" k="141" />
<hkern u1="&#xdd;" u2="o" k="180" />
<hkern u1="&#xdd;" u2="n" k="141" />
<hkern u1="&#xdd;" u2="m" k="141" />
<hkern u1="&#xdd;" u2="g" k="180" />
<hkern u1="&#xdd;" u2="f" k="27" />
<hkern u1="&#xdd;" u2="e" k="180" />
<hkern u1="&#xdd;" u2="d" k="180" />
<hkern u1="&#xdd;" u2="c" k="180" />
<hkern u1="&#xdd;" u2="a" k="199" />
<hkern u1="&#xdd;" u2="T" k="-39" />
<hkern u1="&#xdd;" u2="S" k="27" />
<hkern u1="&#xdd;" u2="Q" k="45" />
<hkern u1="&#xdd;" u2="O" k="45" />
<hkern u1="&#xdd;" u2="J" k="66" />
<hkern u1="&#xdd;" u2="G" k="45" />
<hkern u1="&#xdd;" u2="C" k="45" />
<hkern u1="&#xdd;" u2="A" k="158" />
<hkern u1="&#xdd;" u2="&#x2e;" k="195" />
<hkern u1="&#xdd;" u2="&#x2c;" k="176" />
<hkern u1="&#xde;" u2="&#x2026;" k="326" />
<hkern u1="&#xde;" u2="&#x201e;" k="338" />
<hkern u1="&#xde;" u2="&#x201a;" k="326" />
<hkern u1="&#xde;" u2="&#x153;" k="76" />
<hkern u1="&#xde;" u2="&#xf6;" k="76" />
<hkern u1="&#xde;" u2="&#xf5;" k="76" />
<hkern u1="&#xde;" u2="&#xf4;" k="76" />
<hkern u1="&#xde;" u2="&#xf3;" k="76" />
<hkern u1="&#xde;" u2="&#xf2;" k="76" />
<hkern u1="&#xde;" u2="&#xeb;" k="76" />
<hkern u1="&#xde;" u2="&#xea;" k="76" />
<hkern u1="&#xde;" u2="&#xe9;" k="76" />
<hkern u1="&#xde;" u2="&#xe8;" k="76" />
<hkern u1="&#xde;" u2="&#xe7;" k="76" />
<hkern u1="&#xde;" u2="&#xe6;" k="66" />
<hkern u1="&#xde;" u2="&#xe5;" k="66" />
<hkern u1="&#xde;" u2="&#xe4;" k="66" />
<hkern u1="&#xde;" u2="&#xe3;" k="66" />
<hkern u1="&#xde;" u2="&#xe2;" k="66" />
<hkern u1="&#xde;" u2="&#xe1;" k="66" />
<hkern u1="&#xde;" u2="&#xe0;" k="66" />
<hkern u1="&#xde;" u2="&#xc6;" k="279" />
<hkern u1="&#xde;" u2="&#xc5;" k="158" />
<hkern u1="&#xde;" u2="&#xc4;" k="158" />
<hkern u1="&#xde;" u2="&#xc3;" k="158" />
<hkern u1="&#xde;" u2="&#xc2;" k="158" />
<hkern u1="&#xde;" u2="&#xc1;" k="158" />
<hkern u1="&#xde;" u2="&#xc0;" k="158" />
<hkern u1="&#xde;" u2="q" k="74" />
<hkern u1="&#xde;" u2="o" k="76" />
<hkern u1="&#xde;" u2="g" k="76" />
<hkern u1="&#xde;" u2="e" k="76" />
<hkern u1="&#xde;" u2="d" k="76" />
<hkern u1="&#xde;" u2="c" k="76" />
<hkern u1="&#xde;" u2="a" k="66" />
<hkern u1="&#xde;" u2="X" k="61" />
<hkern u1="&#xde;" u2="W" k="-39" />
<hkern u1="&#xde;" u2="J" k="129" />
<hkern u1="&#xde;" u2="G" k="10" />
<hkern u1="&#xde;" u2="A" k="158" />
<hkern u1="&#xde;" u2="&#x2e;" k="326" />
<hkern u1="&#xde;" u2="&#x2c;" k="326" />
<hkern u1="&#xf2;" u2="&#xfb02;" k="25" />
<hkern u1="&#xf2;" u2="&#xfb01;" k="25" />
<hkern u1="&#xf2;" u2="x" k="27" />
<hkern u1="&#xf2;" u2="f" k="25" />
<hkern u1="&#xf2;" u2="a" k="27" />
<hkern u1="&#xf3;" u2="&#xfb02;" k="25" />
<hkern u1="&#xf3;" u2="&#xfb01;" k="25" />
<hkern u1="&#xf3;" u2="x" k="27" />
<hkern u1="&#xf3;" u2="f" k="25" />
<hkern u1="&#xf3;" u2="a" k="27" />
<hkern u1="&#xf4;" u2="&#xfb02;" k="25" />
<hkern u1="&#xf4;" u2="&#xfb01;" k="25" />
<hkern u1="&#xf4;" u2="x" k="27" />
<hkern u1="&#xf4;" u2="f" k="25" />
<hkern u1="&#xf4;" u2="a" k="27" />
<hkern u1="&#xf5;" u2="&#xfb02;" k="25" />
<hkern u1="&#xf5;" u2="&#xfb01;" k="25" />
<hkern u1="&#xf5;" u2="x" k="27" />
<hkern u1="&#xf5;" u2="f" k="25" />
<hkern u1="&#xf5;" u2="a" k="27" />
<hkern u1="&#xf6;" u2="&#xfb02;" k="25" />
<hkern u1="&#xf6;" u2="&#xfb01;" k="25" />
<hkern u1="&#xf6;" u2="x" k="27" />
<hkern u1="&#xf6;" u2="f" k="25" />
<hkern u1="&#xf6;" u2="a" k="27" />
<hkern u1="&#xf8;" u2="&#xfb02;" k="25" />
<hkern u1="&#xf8;" u2="&#xfb01;" k="25" />
<hkern u1="&#xf8;" u2="x" k="27" />
<hkern u1="&#xf8;" u2="f" k="25" />
<hkern u1="&#xf8;" u2="a" k="27" />
<hkern u1="&#xfd;" u2="&#x203a;" k="-12" />
<hkern u1="&#xfd;" u2="&#x2026;" k="127" />
<hkern u1="&#xfd;" u2="&#x201e;" k="115" />
<hkern u1="&#xfd;" u2="&#x201a;" k="115" />
<hkern u1="&#xfd;" u2="&#x153;" k="10" />
<hkern u1="&#xfd;" u2="&#xf6;" k="10" />
<hkern u1="&#xfd;" u2="&#xf5;" k="10" />
<hkern u1="&#xfd;" u2="&#xf4;" k="10" />
<hkern u1="&#xfd;" u2="&#xf3;" k="10" />
<hkern u1="&#xfd;" u2="&#xf2;" k="10" />
<hkern u1="&#xfd;" u2="&#xeb;" k="10" />
<hkern u1="&#xfd;" u2="&#xea;" k="10" />
<hkern u1="&#xfd;" u2="&#xe9;" k="10" />
<hkern u1="&#xfd;" u2="&#xe8;" k="10" />
<hkern u1="&#xfd;" u2="&#xe7;" k="10" />
<hkern u1="&#xfd;" u2="t" k="-6" />
<hkern u1="&#xfd;" u2="q" k="10" />
<hkern u1="&#xfd;" u2="o" k="10" />
<hkern u1="&#xfd;" u2="g" k="10" />
<hkern u1="&#xfd;" u2="f" k="-4" />
<hkern u1="&#xfd;" u2="e" k="10" />
<hkern u1="&#xfd;" u2="d" k="10" />
<hkern u1="&#xfd;" u2="c" k="10" />
<hkern u1="&#xfd;" u2="&#x3f;" k="76" />
<hkern u1="&#xfd;" u2="&#x2e;" k="127" />
<hkern u1="&#xfd;" u2="&#x2c;" k="102" />
<hkern u1="&#xfd;" u2="&#x27;" k="-29" />
<hkern u1="&#xfd;" u2="&#x22;" k="-29" />
<hkern u1="&#xfe;" u2="&#xfb02;" k="10" />
<hkern u1="&#xfe;" u2="&#xfb01;" k="10" />
<hkern u1="&#xfe;" u2="&#xe6;" k="27" />
<hkern u1="&#xfe;" u2="&#xe5;" k="27" />
<hkern u1="&#xfe;" u2="&#xe4;" k="27" />
<hkern u1="&#xfe;" u2="&#xe3;" k="27" />
<hkern u1="&#xfe;" u2="&#xe2;" k="27" />
<hkern u1="&#xfe;" u2="&#xe1;" k="27" />
<hkern u1="&#xfe;" u2="&#xe0;" k="27" />
<hkern u1="&#xfe;" u2="x" k="25" />
<hkern u1="&#xfe;" u2="f" k="10" />
<hkern u1="&#xfe;" u2="a" k="27" />
<hkern u1="&#xff;" u2="q" k="10" />
<hkern u1="&#xff;" u2="o" k="10" />
<hkern u1="&#xff;" u2="g" k="10" />
<hkern u1="&#xff;" u2="e" k="10" />
<hkern u1="&#xff;" u2="d" k="10" />
<hkern u1="&#xff;" u2="c" k="10" />
<hkern u1="&#x152;" u2="X" k="-8" />
<hkern u1="&#x152;" u2="T" k="-4" />
<hkern u1="&#x152;" u2="J" k="-68" />
<hkern u1="&#x152;" u2="A" k="-29" />
<hkern u1="&#x178;" u2="S" k="27" />
<hkern u1="&#x178;" u2="Q" k="51" />
<hkern u1="&#x178;" u2="O" k="31" />
<hkern u1="&#x178;" u2="G" k="31" />
<hkern u1="&#x178;" u2="C" k="31" />
<hkern u1="&#x178;" u2="A" k="158" />
<hkern u1="&#x2018;" u2="&#x2018;" k="172" />
<hkern u1="&#x2018;" u2="&#xc6;" k="246" />
<hkern u1="&#x2018;" u2="s" k="78" />
<hkern u1="&#x2018;" u2="o" k="129" />
<hkern u1="&#x2018;" u2="g" k="129" />
<hkern u1="&#x2018;" u2="e" k="129" />
<hkern u1="&#x2018;" u2="d" k="158" />
<hkern u1="&#x2018;" u2="c" k="129" />
<hkern u1="&#x2018;" u2="T" k="-82" />
<hkern u1="&#x2018;" u2="J" k="145" />
<hkern u1="&#x2018;" u2="C" k="66" />
<hkern u1="&#x2018;" u2="A" k="219" />
<hkern u1="&#x2019;" u2="&#x2026;" k="102" />
<hkern u1="&#x2019;" u2="&#x201a;" k="104" />
<hkern u1="&#x2019;" u2="&#x2019;" k="172" />
<hkern u1="&#x2019;" u2="&#xc6;" k="248" />
<hkern u1="&#x2019;" u2="s" k="117" />
<hkern u1="&#x2019;" u2="q" k="145" />
<hkern u1="&#x2019;" u2="o" k="158" />
<hkern u1="&#x2019;" u2="g" k="158" />
<hkern u1="&#x2019;" u2="e" k="158" />
<hkern u1="&#x2019;" u2="d" k="158" />
<hkern u1="&#x2019;" u2="c" k="195" />
<hkern u1="&#x2019;" u2="a" k="104" />
<hkern u1="&#x2019;" u2="T" k="-82" />
<hkern u1="&#x2019;" u2="J" k="158" />
<hkern u1="&#x2019;" u2="A" k="166" />
<hkern u1="&#x2019;" u2="&#x2e;" k="102" />
<hkern u1="&#x2019;" u2="&#x2c;" k="102" />
<hkern u1="&#x201a;" u2="&#xdd;" k="248" />
<hkern u1="&#x201a;" u2="w" k="129" />
<hkern u1="&#x201a;" u2="v" k="117" />
<hkern u1="&#x201a;" u2="o" k="-25" />
<hkern u1="&#x201a;" u2="Y" k="248" />
<hkern u1="&#x201a;" u2="X" k="-57" />
<hkern u1="&#x201a;" u2="W" k="129" />
<hkern u1="&#x201a;" u2="V" k="141" />
<hkern u1="&#x201a;" u2="U" k="10" />
<hkern u1="&#x201a;" u2="T" k="207" />
<hkern u1="&#x201a;" u2="O" k="90" />
<hkern u1="&#x201a;" u2="J" k="-109" />
<hkern u1="&#x201a;" u2="G" k="78" />
<hkern u1="&#x201c;" u2="&#x2026;" k="104" />
<hkern u1="&#x201c;" u2="&#xc6;" k="377" />
<hkern u1="&#x201c;" u2="s" k="78" />
<hkern u1="&#x201c;" u2="g" k="141" />
<hkern u1="&#x201c;" u2="e" k="129" />
<hkern u1="&#x201c;" u2="d" k="129" />
<hkern u1="&#x201c;" u2="c" k="129" />
<hkern u1="&#x201c;" u2="T" k="-82" />
<hkern u1="&#x201c;" u2="J" k="158" />
<hkern u1="&#x201c;" u2="A" k="219" />
<hkern u1="&#x201c;" u2="&#x2e;" k="104" />
<hkern u1="&#x201c;" u2="&#x2c;" k="104" />
<hkern u1="&#x201d;" u2="&#x2026;" k="102" />
<hkern u1="&#x201d;" u2="&#xc6;" k="246" />
<hkern u1="&#x201d;" u2="s" k="129" />
<hkern u1="&#x201d;" u2="o" k="158" />
<hkern u1="&#x201d;" u2="g" k="158" />
<hkern u1="&#x201d;" u2="e" k="158" />
<hkern u1="&#x201d;" u2="d" k="158" />
<hkern u1="&#x201d;" u2="c" k="35" />
<hkern u1="&#x201d;" u2="T" k="-82" />
<hkern u1="&#x201d;" u2="A" k="154" />
<hkern u1="&#x201d;" u2="&#x2e;" k="102" />
<hkern u1="&#x201d;" u2="&#x2c;" k="102" />
<hkern u1="&#x201e;" u2="&#xdd;" k="195" />
<hkern u1="&#x201e;" u2="w" k="129" />
<hkern u1="&#x201e;" u2="v" k="117" />
<hkern u1="&#x201e;" u2="Y" k="195" />
<hkern u1="&#x201e;" u2="X" k="-39" />
<hkern u1="&#x201e;" u2="W" k="117" />
<hkern u1="&#x201e;" u2="V" k="129" />
<hkern u1="&#x201e;" u2="U" k="10" />
<hkern u1="&#x201e;" u2="T" k="207" />
<hkern u1="&#x201e;" u2="O" k="78" />
<hkern u1="&#x201e;" u2="J" k="-109" />
<hkern u1="&#x201e;" u2="G" k="90" />
<hkern u1="&#x2026;" u2="&#x201d;" k="195" />
<hkern u1="&#x2026;" u2="&#x201c;" k="207" />
<hkern u1="&#x2026;" u2="&#x2019;" k="195" />
<hkern u1="&#x2026;" u2="&#x2018;" k="207" />
<hkern u1="&#x2039;" u2="&#xfd;" k="-12" />
<hkern u1="&#x2039;" u2="y" k="-12" />
<hkern u1="&#x2039;" u2="Z" k="-82" />
<hkern u1="&#x2039;" u2="W" k="-39" />
<hkern u1="&#x2039;" u2="T" k="49" />
<hkern u1="&#x2039;" u2="J" k="-82" />
<hkern u1="&#x203a;" u2="&#xdd;" k="102" />
<hkern u1="&#x203a;" u2="Y" k="102" />
<hkern u1="&#x203a;" u2="W" k="49" />
<hkern u1="&#x203a;" u2="V" k="49" />
<hkern u1="&#x203a;" u2="T" k="102" />
</font>
</defs></svg> 